spawns	name	room	loc_x	loc_y	loc_z	yaw	script	mood	animation_mood	respawn_time	spawn_objvar	special_room	special_room_script	room_objvar	room_objvar_name	room_objvar_value	radius	planet_level
s	s	s	f	f	f	f	s	s	s	i	s	s	s	s	s	s	f	i[0]
cobral_thief		hall1	-0.033877429	0.25	2.798993587		theme_park.dungeon.generic_death			1800	int:ai.defaultCalmBehavior=2						1.5	1
cobral_thief		hall1	-0.033877429	0.25	2.798993587		theme_park.dungeon.generic_death			1800	int:ai.defaultCalmBehavior=2						1.5	1
cobral_runner		hall2	2.703512907	0.25	-4.018152237		theme_park.dungeon.generic_death			1800	int:ai.defaultCalmBehavior=1						1.5	1
cobral_runner		Room3	2.183346033	-13.75	6.452740192		theme_park.dungeon.generic_death			1800	int:ai.defaultCalmBehavior=2						1.5	1
cobral_runner		Room3	2.183346033	-13.75	6.452740192		theme_park.dungeon.generic_death			1800	int:ai.defaultCalmBehavior=2						1.5	1
cobral_runner		Room3	2.183346033	-13.75	6.452740192		theme_park.dungeon.generic_death			1800	int:ai.defaultCalmBehavior=2						1.5	1
cobral_bandit		Room3	-7.912689209	-13.75	6.852906227		theme_park.dungeon.generic_death			1800	int:ai.defaultCalmBehavior=2						1.5	1
cobral_bandit		Room3	-7.912689209	-13.75	6.852906227		theme_park.dungeon.generic_death			1800	int:ai.defaultCalmBehavior=2						1.5	1
cobral_assassin		foyer	3.638256073	-20.73322296	9.896472931		theme_park.dungeon.generic_death			1800	int:ai.defaultCalmBehavior=2						1.5	1
cobral_assassin		foyer	3.638256073	-20.73322296	9.896472931		theme_park.dungeon.generic_death			1800	int:ai.defaultCalmBehavior=2						1.5	1
cobral_hitman		foyer	-1.477563977	-20.73322296	5.118898869		theme_park.dungeon.generic_death			1800	int:ai.defaultCalmBehavior=2						1.5	1
cobral_hitman		foyer	-1.477563977	-20.73322296	5.118898869		theme_park.dungeon.generic_death			1800	int:ai.defaultCalmBehavior=2						1.5	1
cobral_assassin		bunker	-1.803629041	-20.75	25.96853065		theme_park.dungeon.generic_death			1800	int:ai.defaultCalmBehavior=2						1.5	1
cobral_assassin		bunker	-1.803629041	-20.75	25.96853065		theme_park.dungeon.generic_death			1800	int:ai.defaultCalmBehavior=2						1.5	1
cobral_hitman		bunker	4.965702057	-20.75	25.96026802		theme_park.dungeon.generic_death			1800	int:ai.defaultCalmBehavior=2						1.5	1
cobral_hitman		bunker	4.965702057	-20.75	25.96026802		theme_park.dungeon.generic_death			1800	int:ai.defaultCalmBehavior=2						1.5	1
cobral_boss		bunker	1.548990011	-20.75	31.99565506		theme_park.dungeon.generic_death			7200	int:ai.defaultCalmBehavior=1						1.5	1
