spawns	name	room	loc_x	loc_y	loc_z	yaw	script	mood	animation_mood	respawn_time	spawn_objvar	special_room	special_room_script	room_objvar	room_objvar_name	room_objvar_value	radius	planet_level
s	s	s	f	f	f	f	s	s	s	i	s	s	s	s	s	s	f	i[0]
decay_mite		r4	49.48148727	-38.08644867	-97.02376556		theme_park.dungeon.generic_death			645	int:ai.defaultCalmBehavior=2						1.5	1
decay_mite		r4	49.48148727	-38.08644867	-97.02376556		theme_park.dungeon.generic_death			645	int:ai.defaultCalmBehavior=2						1.5	1
rot_mite		r4	40.82062912	-37.97650146	-98.59532928		theme_park.dungeon.generic_death			898	int:ai.defaultCalmBehavior=1						1.5	1
putrid_decay_mite_hatchling		r4	39.96088028	-38.14746475	-70.2447052		theme_park.dungeon.generic_death			623	int:ai.defaultCalmBehavior=2						1.5	1
putrid_decay_mite_hatchling		r4	39.96088028	-38.14746475	-70.2447052		theme_park.dungeon.generic_death			623	int:ai.defaultCalmBehavior=2						1.5	1
minor_sludge_panther		r5	-7.75360918	-36.81530762	-139.2320251		theme_park.dungeon.generic_death			1120	int:ai.defaultCalmBehavior=2						1.5	1
minor_sludge_panther		r5	-7.75360918	-36.81530762	-139.2320251		theme_park.dungeon.generic_death			1120	int:ai.defaultCalmBehavior=2						1.5	1
sludge_panther		r5	-2.07823205	-37.37294006	-144.1902618		theme_park.dungeon.generic_death			1243	int:ai.defaultCalmBehavior=1						1.5	1
feared_fynock_youth		r5	56.71136856	-46.23115158	-146.2991638		theme_park.dungeon.generic_death			787	int:ai.defaultCalmBehavior=2						1.5	1
feared_fynock_youth		r5	56.71136856	-46.23115158	-146.2991638		theme_park.dungeon.generic_death			787	int:ai.defaultCalmBehavior=2						1.5	1
feared_fynock_youth		r5	56.71136856	-46.23115158	-146.2991638		theme_park.dungeon.generic_death			787	int:ai.defaultCalmBehavior=2						1.5	1
fynock		r5	35.65994644	-49.551754	-164.2745209		theme_park.dungeon.generic_death			676	int:ai.defaultCalmBehavior=1						1.5	1
thug		r5	46.36907578	-48.29925537	-180.8490906		theme_park.dungeon.generic_death			100	int:ai.defaultCalmBehavior=1						1.5	1
feared_fynock_youth		r5	30.15527534	-52.00235367	-179.0259247		theme_park.dungeon.generic_death			798	int:ai.defaultCalmBehavior=2						1.5	1
feared_fynock_youth		r5	30.15527534	-52.00235367	-179.0259247		theme_park.dungeon.generic_death			798	int:ai.defaultCalmBehavior=2						1.5	1
feared_fynock_youth		r5	30.15527534	-52.00235367	-179.0259247		theme_park.dungeon.generic_death			798	int:ai.defaultCalmBehavior=2						1.5	1
clipped_fynock		r5	65.03727722	-50.22257233	-165.9891968		theme_park.dungeon.generic_death			877	int:ai.defaultCalmBehavior=2						1.5	1
clipped_fynock		r5	65.03727722	-50.22257233	-165.9891968		theme_park.dungeon.generic_death			877	int:ai.defaultCalmBehavior=2						1.5	1
guf_drolg		r7	-8.56923008	-56.0837059	-231.7608337		theme_park.dungeon.generic_death			1654	int:ai.defaultCalmBehavior=1						1.5	1
guf_drolg_female		r7	-22.34544945	-55.36290359	-258.3942261		theme_park.dungeon.generic_death			1637	int:ai.defaultCalmBehavior=1						1.5	1
minor_guf_drolg		r7	-13.64868927	-57.72854614	-216.3155518		theme_park.dungeon.generic_death			1546	int:ai.defaultCalmBehavior=2						1.5	1
minor_guf_drolg		r7	-13.64868927	-57.72854614	-216.3155518		theme_park.dungeon.generic_death			1546	int:ai.defaultCalmBehavior=2						1.5	1
fynock		r8	-63.32756424	-62.00380325	-171.5874634		theme_park.dungeon.generic_death			1121	int:ai.defaultCalmBehavior=2						1.5	1
fynock		r8	-63.32756424	-62.00380325	-171.5874634		theme_park.dungeon.generic_death			1121	int:ai.defaultCalmBehavior=2						1.5	1
feared_fynock_youth		r8	-66.97163391	-61.93906784	-196.6476288		theme_park.dungeon.generic_death			876	int:ai.defaultCalmBehavior=2						1.5	1
feared_fynock_youth		r8	-66.97163391	-61.93906784	-196.6476288		theme_park.dungeon.generic_death			876	int:ai.defaultCalmBehavior=2						1.5	1
feared_fynock_youth		r8	-66.97163391	-61.93906784	-196.6476288		theme_park.dungeon.generic_death			876	int:ai.defaultCalmBehavior=2						1.5	1
clipped_fynock		r8	-116.1328354	-61.66143036	-200.1785431		theme_park.dungeon.generic_death			878	int:ai.defaultCalmBehavior=2						1.5	1
clipped_fynock		r8	-116.1328354	-61.66143036	-200.1785431		theme_park.dungeon.generic_death			878	int:ai.defaultCalmBehavior=2						1.5	1
clipped_fynock		r8	-116.1328354	-61.66143036	-200.1785431		theme_park.dungeon.generic_death			878	int:ai.defaultCalmBehavior=2						1.5	1
fynock		r8	-121.0903625	-61.41876602	-171.4468384		theme_park.dungeon.generic_death			1369	int:ai.defaultCalmBehavior=2						1.5	1
fynock		r8	-121.0903625	-61.41876602	-171.4468384		theme_park.dungeon.generic_death			1369	int:ai.defaultCalmBehavior=2						1.5	1
glutted_fynock_queen		r8	-97.36960602	-62.11678314	-105.4257736		theme_park.dungeon.generic_death			1656	int:ai.defaultCalmBehavior=1						1.5	1
frenzied_fynock_guardian		r8	-100.446846	-62.22541428	-127.6606445		theme_park.dungeon.generic_death			1344	int:ai.defaultCalmBehavior=2						1.5	1
frenzied_fynock_guardian		r8	-100.446846	-62.22541428	-127.6606445		theme_park.dungeon.generic_death			1344	int:ai.defaultCalmBehavior=2						1.5	1
frenzied_kahmurra		r8	-85.2294693	-93.14299774	-142.4465027		theme_park.dungeon.generic_death			2102	int:ai.defaultCalmBehavior=1						1.5	1
beserk_kahmurra		r8	-92.41686249	-94.43360901	-136.3187103		theme_park.dungeon.generic_death			1876	int:ai.defaultCalmBehavior=1						1.5	1
giant_fynock		r9	-52.72211075	-60.70991516	-97.86663818		theme_park.dungeon.generic_death			3709	int:ai.defaultCalmBehavior=1						1.5	1
frenzied_fynock_guardian		r9	-8.029870033	-60.33172607	-96.64725494		theme_park.dungeon.generic_death			1655	int:ai.defaultCalmBehavior=2						1.5	1
frenzied_fynock_guardian		r9	-8.029870033	-60.33172607	-96.64725494		theme_park.dungeon.generic_death			1655	int:ai.defaultCalmBehavior=2						1.5	1
clipped_fynock		r9	-44.3776207	-61.90538025	-84.30979156		theme_park.dungeon.generic_death			1735	int:ai.defaultCalmBehavior=2						1.5	1
clipped_fynock		r9	-44.3776207	-61.90538025	-84.30979156		theme_park.dungeon.generic_death			1735	int:ai.defaultCalmBehavior=2						1.5	1
clipped_fynock		r9	-44.3776207	-61.90538025	-84.30979156		theme_park.dungeon.generic_death			1735	int:ai.defaultCalmBehavior=2						1.5	1
fynock		r9	-45.89970398	-61.26646423	-111.478775		theme_park.dungeon.generic_death			1576	int:ai.defaultCalmBehavior=2						1.5	1
fynock		r9	-45.89970398	-61.26646423	-111.478775		theme_park.dungeon.generic_death			1576	int:ai.defaultCalmBehavior=2						1.5	1
beserk_kahmurra		r11	-83.49187469	-93.59004211	-112.6937714		theme_park.dungeon.generic_death			2121	int:ai.defaultCalmBehavior=1						1.5	1
beserk_kahmurra		r11	-101.8674622	-91.1027832	-110.9991074		theme_park.dungeon.generic_death			2002	int:ai.defaultCalmBehavior=1						1.5	1
rabid_mutant_kahmurra		r11	-91.17292023	-92.6794281	-95.88780975		theme_park.dungeon.generic_death			3453	int:ai.defaultCalmBehavior=1						1.5	1
