spawns	name	room	loc_x	loc_y	loc_z	yaw	script	mood	animation_mood	respawn_time	spawn_objvar	special_room	special_room_script	room_objvar	room_objvar_name	room_objvar_value	planet_level
s	s	s	f	f	f	f	s	s	s	i	s	s	s	s	s	s	i[0]
nightsister_outcast		world	-2596.602051	131.2844238	4951.878906	80	theme_park.dungeon.generic_death			10800	int:ai.defaultCalmBehavior=1						1
nightsister_outcast		world	-2597.9	130.9	4957.7	80	theme_park.dungeon.generic_death			10800	int:ai.defaultCalmBehavior=1						1
nightsister_outcast		world	-2603.4	131.6	4953.3	80	theme_park.dungeon.generic_death	npc_meditate		10800	int:ai.defaultCalmBehavior=1						1
