spawns	name	room	loc_x	loc_y	loc_z	yaw	script	mood	animation_mood	respawn_time	spawn_objvar	special_room	special_room_script	room_objvar	room_objvar_name	room_objvar_value	planet_level
s	s	s	f	f	f	f	s	s	s	i	s	s	s	s	s	s	i[0]
rancor		world	5204.931152	446.9533691	-6886.689941	-179	theme_park.dungeon.generic_death			3600	int:ai.defaultCalmBehavior=1						1
singing_mtn_clan_initiate		world	5197.994629	446.5801697	-6879.12793	166	theme_park.dungeon.generic_death			3600	int:ai.defaultCalmBehavior=1						1
