objid	container	server_template_crc	cell_index	px	py	pz	qw	qx	qy	qz	scripts	objvars
i	i	h	i	f	f	f	f	f	f	f	s	p
104	0	object/static/structure/naboo/streetlamp_naboo_theed_style_1.iff	0	992.9502	6	194.5664	0.9780309	0	0.2084599	0		$|
105	0	object/static/structure/naboo/streetlamp_naboo_theed_style_1.iff	0	1033.938	6	88.69434	0.4266599	0	0.9044122	0		$|
106	0	object/static/structure/naboo/streetlamp_naboo_theed_style_1.iff	0	991.6162	6	38.69727	0.9492354	0	0.3145665	0		$|
107	0	object/static/structure/naboo/streetlamp_naboo_theed_style_1.iff	0	1092.37	6	60.91162	0.9780309	0	0.20846	0		$|
56911	0	object/building/naboo/filler_building_naboo_theed_style_2.iff	0	894.9385	6	519.2261	-0.1155384	0	0.9933031	0		$|
56918	0	object/building/naboo/filler_building_naboo_theed_style_2.iff	0	461.519	6	273.7817	0.8472518	0	-0.5311915	0		$|
56919	0	object/building/naboo/association_hall_civilian_naboo.iff	0	351.562	6	324.1104	0.4221324	0	0.9065342	0		$|
1305917	56919	object/cell/cell.iff	1	0	0	0	1	1.40E-45	0	0		$|
1305918	56919	object/cell/cell.iff	2	0	0	0	1	2.80E-45	0	0		$|
1305919	56919	object/cell/cell.iff	3	0	0	0	1	4.20E-45	0	0		$|
1305920	56919	object/cell/cell.iff	4	0	0	0	1	5.61E-45	0	0		$|
1305921	56919	object/cell/cell.iff	5	0	0	0	1	7.01E-45	0	0		$|
1305922	56919	object/cell/cell.iff	6	0	0	0	1	8.41E-45	0	0		$|
1305923	56919	object/cell/cell.iff	7	0	0	0	1	9.81E-45	0	0		$|
1305924	56919	object/cell/cell.iff	8	0	0	0	1	1.12E-44	0	0		$|
1305925	56919	object/cell/cell.iff	9	0	0	0	1	1.26E-44	0	0		$|
1305926	56919	object/cell/cell.iff	10	0	0	0	1	1.40E-44	0	0		$|
7935368	1305926	object/soundobject/soundobject_city_crowd_small.iff	10	3.680751	1.421486	-10.62106	1	0	0	0		$|
1305927	56919	object/cell/cell.iff	11	0	0	0	1	1.54E-44	0	0		$|
8085647	1305927	object/soundobject/soundobject_city_crowd_small.iff	11	-2.276463	1.75	-19.08121	1	0	0	0		$|
1305928	56919	object/cell/cell.iff	12	0	0	0	1	1.68E-44	0	0		$|
1305929	56919	object/cell/cell.iff	13	0	0	0	1	1.82E-44	0	0		$|
1305930	56919	object/cell/cell.iff	14	0	0	0	1	1.96E-44	0	0		$|
1305931	56919	object/cell/cell.iff	15	0	0	0	1	2.10E-44	0	0		$|
1305932	56919	object/cell/cell.iff	16	0	0	0	1	2.24E-44	0	0		$|
1305933	56919	object/cell/cell.iff	17	0	0	0	1	2.38E-44	0	0		$|
56931	0	object/static/structure/naboo/planter_naboo_theed_style_1.iff	0	411.6782	6	295.3838	1	0	0	0		$|
56932	0	object/static/structure/naboo/planter_naboo_theed_style_2.iff	0	420.8115	6	306.2217	1	0	0	0		$|
79367	0	object/building/naboo/filler_building_naboo_theed_style_4.iff	0	697.2739	6	291.5464	0.7080964	0	-0.7061158	0		$|
79371	0	object/building/naboo/association_hall_civilian_naboo.iff	0	710.3965	6	170.4702	0.710912	0	-0.703281	0		$|
1305883	79371	object/cell/cell.iff	1	0	0	0	1	1.40E-45	0	0		$|
1305884	79371	object/cell/cell.iff	2	0	0	0	1	2.80E-45	0	0		$|
1305885	79371	object/cell/cell.iff	3	0	0	0	1	4.20E-45	0	0		$|
1305886	79371	object/cell/cell.iff	4	0	0	0	1	5.61E-45	0	0		$|
1305887	79371	object/cell/cell.iff	5	0	0	0	1	7.01E-45	0	0		$|
1305888	79371	object/cell/cell.iff	6	0	0	0	1	8.41E-45	0	0		$|
1305889	79371	object/cell/cell.iff	7	0	0	0	1	9.81E-45	0	0		$|
1305890	79371	object/cell/cell.iff	8	0	0	0	1	1.12E-44	0	0		$|
1305891	79371	object/cell/cell.iff	9	0	0	0	1	1.26E-44	0	0		$|
1305892	79371	object/cell/cell.iff	10	0	0	0	1	1.40E-44	0	0		$|
7825823	1305892	object/soundobject/soundobject_city_crowd_medium.iff	10	1.415109	1.154404	-5.317945	1	0	0	0		$|
1305893	79371	object/cell/cell.iff	11	0	0	0	1	1.54E-44	0	0		$|
1305894	79371	object/cell/cell.iff	12	0	0	0	1	1.68E-44	0	0		$|
1305895	79371	object/cell/cell.iff	13	0	0	0	1	1.82E-44	0	0		$|
1305896	79371	object/cell/cell.iff	14	0	0	0	1	1.96E-44	0	0		$|
1305897	79371	object/cell/cell.iff	15	0	0	0	1	2.10E-44	0	0		$|
1305898	79371	object/cell/cell.iff	16	0	0	0	1	2.24E-44	0	0		$|
1305899	79371	object/cell/cell.iff	17	0	0	0	1	2.38E-44	0	0		$|
79372	0	object/building/naboo/association_hall_civilian_naboo.iff	0	764.2832	6	103.1987	0.004203021	0	0.9999912	0		$|
1305866	79372	object/cell/cell.iff	1	0	0	0	1	1.40E-45	0	0		$|
1305867	79372	object/cell/cell.iff	2	0	0	0	1	2.80E-45	0	0		$|
1305868	79372	object/cell/cell.iff	3	0	0	0	1	4.20E-45	0	0		$|
1305869	79372	object/cell/cell.iff	4	0	0	0	1	5.61E-45	0	0		$|
1305870	79372	object/cell/cell.iff	5	0	0	0	1	7.01E-45	0	0		$|
1305871	79372	object/cell/cell.iff	6	0	0	0	1	8.41E-45	0	0		$|
1305872	79372	object/cell/cell.iff	7	0	0	0	1	9.81E-45	0	0		$|
1305873	79372	object/cell/cell.iff	8	0	0	0	1	1.12E-44	0	0		$|
1305874	79372	object/cell/cell.iff	9	0	0	0	1	1.26E-44	0	0		$|
1305875	79372	object/cell/cell.iff	10	0	0	0	1	1.40E-44	0	0		$|
8185353	1305875	object/soundobject/soundobject_city_crowd_small.iff	10	0.94877	1.154404	-6.131155	1	0	0	0		$|
1305876	79372	object/cell/cell.iff	11	0	0	0	1	1.54E-44	0	0		$|
1305877	79372	object/cell/cell.iff	12	0	0	0	1	1.68E-44	0	0		$|
1305878	79372	object/cell/cell.iff	13	0	0	0	1	1.82E-44	0	0		$|
1305879	79372	object/cell/cell.iff	14	0	0	0	1	1.96E-44	0	0		$|
1305880	79372	object/cell/cell.iff	15	0	0	0	1	2.10E-44	0	0		$|
1305881	79372	object/cell/cell.iff	16	0	0	0	1	2.24E-44	0	0		$|
1305882	79372	object/cell/cell.iff	17	0	0	0	1	2.38E-44	0	0		$|
79384	0	object/static/structure/naboo/planter_naboo_theed_style_1.iff	0	616	6	121	0.7213693	0	0.6925507	0		$|
79386	0	object/static/structure/naboo/planter_naboo_theed_style_1.iff	0	610.4385	6	107.4824	0.7213693	0	0.6925507	0		$|
79411	0	object/building/naboo/association_hall_civilian_naboo.iff	0	770.9932	6	309.9688	0.7080972	0	0.706115	0		$|
1305849	79411	object/cell/cell.iff	1	0	0	0	1	1.40E-45	0	0		$|
1305850	79411	object/cell/cell.iff	2	0	0	0	1	2.80E-45	0	0		$|
1305851	79411	object/cell/cell.iff	3	0	0	0	1	4.20E-45	0	0		$|
1305852	79411	object/cell/cell.iff	4	0	0	0	1	5.61E-45	0	0		$|
1305853	79411	object/cell/cell.iff	5	0	0	0	1	7.01E-45	0	0		$|
1305854	79411	object/cell/cell.iff	6	0	0	0	1	8.41E-45	0	0		$|
1305855	79411	object/cell/cell.iff	7	0	0	0	1	9.81E-45	0	0		$|
1305856	79411	object/cell/cell.iff	8	0	0	0	1	1.12E-44	0	0		$|
1305857	79411	object/cell/cell.iff	9	0	0	0	1	1.26E-44	0	0		$|
1305858	79411	object/cell/cell.iff	10	0	0	0	1	1.40E-44	0	0		$|
7935360	1305858	object/soundobject/soundobject_city_crowd_small.iff	10	0.555736	1.154404	-6.303753	1	0	0	0		$|
1305859	79411	object/cell/cell.iff	11	0	0	0	1	1.54E-44	0	0		$|
1305860	79411	object/cell/cell.iff	12	0	0	0	1	1.68E-44	0	0		$|
1305861	79411	object/cell/cell.iff	13	0	0	0	1	1.82E-44	0	0		$|
1305862	79411	object/cell/cell.iff	14	0	0	0	1	1.96E-44	0	0		$|
1305863	79411	object/cell/cell.iff	15	0	0	0	1	2.10E-44	0	0		$|
1305864	79411	object/cell/cell.iff	16	0	0	0	1	2.24E-44	0	0		$|
1305865	79411	object/cell/cell.iff	17	0	0	0	1	2.38E-44	0	0		$|
79421	0	object/building/naboo/filler_building_naboo_theed_style_4.iff	0	758.9521	6	243.6685	0.005797022	0	0.9999832	0		$|
79422	0	object/building/naboo/filler_building_naboo_theed_style_4.iff	0	780.8735	6	272.8208	0.6954466	0	0.7185778	0		$|
79423	0	object/building/naboo/filler_building_naboo_theed_style_4.iff	0	718.436	6	291.1982	0.7019691	0	0.7122093	0		$|
100316	0	object/static/structure/naboo/obelisk_naboo_theed_style_3.iff	0	806.6064	6	507.2788	1	0	0	0		$|
100317	0	object/static/structure/naboo/obelisk_naboo_theed_style_1.iff	0	730.1841	6	124.1973	1	0	0	0		$|
100318	0	object/static/structure/naboo/bridge_naboo_theed_style_1.iff	0	890.9629	0.243319	215.7275	0.9725144	0	0.2328429	0		$|
100319	0	object/static/structure/naboo/bridge_naboo_theed_style_1.iff	0	862.9355	0.007476807	466.625	0.9855849	0	-0.169182	0		$|
100320	0	object/static/structure/naboo/bridge_naboo_theed_style_1.iff	0	848.2114	0.2584085	100.6597	0.9610555	0	-0.2763553	0		$|
100332	0	object/static/structure/naboo/streetlamp_naboo_theed_style_1.iff	0	583.478	6	293.7046	1	0	0	0		$|
106316	0	object/static/structure/naboo/streetlamp_naboo_theed_style_1.iff	0	682.3555	6	143.2178	1	0	0	0		$|
106320	0	object/static/structure/naboo/streetlamp_naboo_theed_style_1.iff	0	623.0239	6	135.2759	1	0	0	0		$|
106332	0	object/static/structure/naboo/streetlamp_naboo_theed_style_1.iff	0	853.2383	6	14.87598	0.9838437	0	-0.1790295	0		$|
106336	0	object/static/structure/naboo/streetlamp_naboo_theed_style_1.iff	0	822.3667	6	98.12451	0.9706929	0	-0.2403235	0		$|
106338	0	object/static/structure/naboo/streetlamp_naboo_theed_style_1.iff	0	777.811	6	161.6436	1	0	0	0		$|
106360	0	object/static/structure/naboo/seawall_intersect_naboo_theed_style_1.iff	0	859.4155	0	121.1519	0.9596616	0	-0.2811576	0		$|
121328	0	object/building/naboo/filler_building_naboo_theed_style_10.iff	0	694.1899	6	125.0366	0.7109208	0	-0.7032722	0		$|
121333	0	object/building/naboo/filler_building_naboo_theed_style_10.iff	0	712.6836	6	91.68848	-0.01079713	0	0.9999418	0		$|
124342	0	object/static/structure/general/planter_generic_style_1.iff	0	712.5898	6	107.6924	1	0	0	0		$|
124343	0	object/static/structure/general/planter_generic_style_2.iff	0	712.3442	6	125.1533	1	0	0	0		$|
124344	0	object/static/structure/general/planter_generic_style_3.iff	0	711.9912	6	144.0542	1	0	0	0		$|
124347	0	object/static/structure/general/planter_generic_style_3.iff	0	681.4951	6	153.2085	1	0	0	0		$|
124348	0	object/static/structure/general/planter_generic_style_2.iff	0	680.4409	6	125.8643	1	0	0	0		$|
130317	0	object/static/structure/naboo/seawall_straight_naboo_theed_style_4.iff	0	490.1587	0.06631075	182.9849	0.7712463	0	0.6365368	0		$|
130321	0	object/static/structure/naboo/seawall_straight_naboo_theed_style_4.iff	0	514.8169	0.13216	130.3052	0.8678194	0	0.4968797	0		$|
130323	0	object/static/structure/naboo/seawall_straight_naboo_theed_style_4.iff	0	531.2803	0.13216	102.9272	0.8702929	0	0.4925345	0		$|
130324	0	object/static/structure/naboo/seawall_straight_naboo_theed_style_4.iff	0	547.48	0.13216	75.34766	0.8678194	0	0.4968797	0		$|
130325	0	object/static/structure/naboo/seawall_straight_naboo_theed_style_4.iff	0	564.2256	0.13216	48.09424	0.872744	0	0.4881781	0		$|
130326	0	object/static/structure/naboo/seawall_stair_naboo_theed_style_1.iff	0	495.7002	0.06897783	166.0991	0.8138784	0	0.5810352	0		$|
130332	0	object/static/structure/naboo/seawall_straight_naboo_theed_style_4.iff	0	858.519	0.290849	417.9771	0.8077928	0	0.5894665	0		$|
130333	0	object/static/structure/naboo/seawall_straight_naboo_theed_style_4.iff	0	868.2817	0.32006	387.5039	0.8077928	0	0.5894665	0		$|
130336	0	object/static/structure/naboo/seawall_straight_naboo_theed_style_4.iff	0	878.8706	0.09819245	333.6831	0.8138784	0	0.5810353	0		$|
130337	0	object/static/structure/naboo/seawall_straight_naboo_theed_style_4.iff	0	889.2412	0.098413	303.4194	0.8138784	0	0.5810352	0		$|
130338	0	object/static/structure/naboo/seawall_straight_naboo_theed_style_4.iff	0	899.6338	0.098413	273.1543	0.8138784	0	0.5810352	0		$|
130344	0	object/static/structure/naboo/seawall_intersect_naboo_theed_style_1.iff	0	899.7671	0	273.7202	0.7109118	0	0.7032812	0		$|
130348	0	object/static/structure/naboo/seawall_straight_naboo_theed_style_2.iff	0	820.6372	0.1267049	116.7954	0.5190989	0	0.8547142	0		$|
130349	0	object/static/structure/naboo/seawall_straight_naboo_theed_style_2.iff	0	826.5425	0.126705	100.998	0.8281485	0	0.5605088	0		$|
141334	0	object/static/particle/particle_test_4.iff	0	1025.012	1797.288	594.3638	0.7705105	0	0.6334053	-0.01824202		$|
141335	0	object/static/particle/particle_test_5.iff	0	911.0981	1610.657	643.4624	1	0	0	0		$|
141338	0	object/static/particle/particle_test_4.iff	0	945.8394	1789.375	605.1973	0.8360858	0	0.5474102	-0.01661201		$|
141341	0	object/static/particle/particle_test_4.iff	0	869.2949	1773.366	620.6108	0.6331601	0	0.7662529	-0.1077721		$|
141342	0	object/static/particle/particle_test_5.iff	0	975.7212	1610	639.4131	1	0	0	0		$|
141439	0	object/static/structure/naboo/seawall_straight_naboo_theed_style_3.iff	0	929.3071	0.1836825	257.1309	0.8445878	0	-0.5354171	0		$|
141440	0	object/static/structure/naboo/seawall_rocks_naboo_theed_style_1.iff	0	938.6724	2047.809	277.5737	0.7807038	0	-0.6249013	0		$|
141442	0	object/static/structure/naboo/seawall_rocks_naboo_theed_style_1.iff	0	929.2998	0.4197217	302.1079	-0.5873609	0	0.8093252	0		$|
141444	0	object/static/structure/naboo/seawall_straight_naboo_theed_style_4.iff	0	872.5591	0.1768869	103.7349	-0.4356832	0	0.9001001	0		$|
141446	0	object/static/structure/naboo/seawall_rocks_naboo_theed_style_1.iff	0	895.0933	2047.239	80.11768	-0.3947505	0	0.9187883	0		$|
141448	0	object/static/structure/naboo/seawall_rocks_naboo_theed_style_1.iff	0	912.8364	0.07068869	66.40576	-0.4284488	0	0.9035659	0		$|
167319	0	object/static/structure/naboo/seawall_rocks_naboo_theed_style_1.iff	0	923.8193	0.437294	234.9302	0.8653239	0	-0.5012131	0		$|
167326	0	object/static/structure/naboo/seawall_intersect_naboo_theed_style_1.iff	0	826.2153	0	100.2495	0.9810476	0	-0.1937666	0		$|
167327	0	object/static/structure/naboo/seawall_intersect_naboo_theed_style_1.iff	0	834.0845	0.1147881	78.05566	0.8225023	0	0.5687618	0		$|
167341	0	object/static/structure/naboo/seawall_straight_naboo_theed_style_4.iff	0	845.4473	0.1147881	47.38135	0.8225023	0	0.5687618	0		$|
167342	0	object/static/structure/naboo/seawall_straight_naboo_theed_style_4.iff	0	856.7241	0.1147881	17.48975	0.8225023	0	0.5687618	0		$|
167344	0	object/static/structure/naboo/seawall_intersect_naboo_theed_style_1.iff	0	856.9272	0.1147881	16.23779	0.8225023	0	0.5687618	0		$|
173326	0	object/static/particle/particle_test_3.iff	0	1017.095	1898.943	537.0029	0.640694	0	0.7635103	-0.05156833		$|
178552	0	object/static/structure/naboo/nboo_imprv_pristine_wall_large_s01.iff	0	1467.563	0.05403876	125.2661	0.9078374	0	-0.4193225	0		$|
178553	0	object/static/structure/naboo/nboo_imprv_pillar_pillar_s01.iff	0	1467.348	2046.78	125.312	0.419323	0	0.907837	0		$|
178555	0	object/static/structure/naboo/nboo_imprv_pillar_pillar_s01.iff	0	1454.978	8.053091	112.834	2.78E-08	0	3.89E-08	-0.419323		$|
178556	0	object/static/structure/naboo/nboo_imprv_pillar_pillar_s01.iff	0	1461.907	7.752618	122.4351	2.78E-08	0	3.89E-08	-0.419323		$|
178557	0	object/static/structure/naboo/nboo_imprv_pillar_pillar_s01.iff	0	1438.439	5.150313	189.7407	2.78E-08	0	3.89E-08	-0.419323		$|
185364	0	object/static/structure/naboo/seawall_rocks_naboo_theed_style_1.iff	0	865.8423	0.1017232	362.1338	0.7173528	0	0.6967101	0		$|
185365	0	object/static/structure/naboo/seawall_straight_naboo_theed_style_4.iff	0	885.7915	0.09888346	245.3364	0.5276199	0	0.8494805	0		$|
185366	0	object/static/structure/naboo/seawall_straight_naboo_theed_style_4.iff	0	857.5015	0.1267053	187.7275	0.519099	0	0.8547142	0		$|
185369	0	object/static/structure/naboo/seawall_straight_naboo_theed_style_4.iff	0	842.771	0.1267053	159.3691	0.519099	0	0.8547142	0		$|
189544	0	object/building/naboo/salon_naboo.iff	0	1019.857	6.228573	160.6289	0.9375082	0	0.3479631	0		$|
189545	189544	object/cell/cell.iff	1	0	0	0	1	1.40E-45	0	0		$|
474323	0	object/building/naboo/cloning_facility_naboo.iff	0	257.1265	6	205.5562	0.9999416	0	0.01080508	0		$|
474324	474323	object/cell/cell.iff	1	0	0	0	1	1.40E-45	0	0		$|
474325	474323	object/cell/cell.iff	2	0	0	0	1	2.80E-45	0	0		$|
474326	474323	object/cell/cell.iff	3	0	0	0	1	4.20E-45	0	0		$|
474327	474323	object/cell/cell.iff	4	0	0	0	1	5.61E-45	0	0		$|
7935382	474327	object/soundobject/soundobject_cloning_facility.iff	4	1.985964	-5.5	-9.02837	1	0	0	0		$|
923817	474323	object/cell/cell.iff	5	0	0	0	1	7.01E-45	0	0		$|
923818	474323	object/cell/cell.iff	6	0	0	0	1	8.41E-45	0	0		$|
908864	0	object/static/particle/particle_seagulls_flock.iff	0	859.6333	6	398.7632	1	0	0	0		$|
908865	0	object/static/particle/particle_seagulls_flock.iff	0	440.1807	6	396.6157	1	0	0	0		$|
1340335	0	object/tangible/furniture/elegant/coffee_table_s01.iff	0	580.0161	6	210.6826	0.707107	0	-0.7071065	0		$|
1340336	0	object/tangible/furniture/elegant/end_table_s01.iff	0	579.6396	6	209.2236	1	0	0	0		$|
1340337	0	object/tangible/furniture/elegant/end_table_s01.iff	0	579.6699	6	212.1558	1	0	0	0		$|
1340338	0	object/static/item/item_katana.iff	0	579.8901	6.411098	210.0405	0.387747	0	-0.591314	0.591314		$|
1340339	0	object/static/item/item_tank_bubble.iff	0	580.1328	6.411098	210.5728	0.8364629	0	-0.5480236	0		$|
1340340	0	object/static/item/item_bottle_fat.iff	0	579.7148	6.379475	212.1641	1	0	0	0		$|
1340341	0	object/static/item/item_bottle_tall.iff	0	579.6978	6.379475	209.1841	1	0	0	0		$|
1340342	0	object/static/item/item_katana.iff	0	579.8843	6.411097	211.2881	0.5874071	0	-0.3936406	-0.3936406		$|
1340343	0	object/static/item/item_fruit_melon.iff	0	579.7031	7.264915	209.1909	1	0	0	0		$|
1340344	0	object/static/item/item_slave_brazier.iff	0	581.2471	7.919809	210.5728	0.7058343	0	0.04240095	-0.04240096		$|
1340345	0	object/static/item/item_katana.iff	0	580.6909	8.141168	210.5889	3.20E-08	0	0	1		$|
1340346	0	object/tangible/furniture/elegant/coffee_table_s01.iff	0	765.5723	6	233.7852	-0.000397898	0	1	0		$|
1340347	0	object/tangible/furniture/elegant/end_table_s01.iff	0	767.0347	6	233.4077	0.7073883	0	-0.7068251	0		$|
1340348	0	object/tangible/furniture/elegant/end_table_s01.iff	0	764.1011	6	233.4399	0.7073883	0	-0.7068251	0		$|
1340350	0	object/static/item/item_tank_bubble.iff	0	765.6846	6.411098	233.9014	-0.2043464	0	0.9788987	0		$|
1340351	0	object/static/item/item_bottle_fat.iff	0	764.0918	6.379475	233.4819	0.7073883	0	-0.7068251	0		$|
1340352	0	object/static/item/item_bottle_tall.iff	0	767.0708	6.379475	233.4634	0.7073883	0	-0.7068251	0		$|
1340354	0	object/static/item/item_fruit_melon.iff	0	767.0654	7.264915	233.4702	0.7073883	0	-0.7068251	0		$|
1340355	0	object/static/item/item_slave_brazier.iff	0	763.2939	7.740963	234.2686	-0.1349914	0	-0.6492494	0.1523699		$|
1340357	0	object/static/item/item_ryyk_blade.iff	0	765.1133	6.462491	233.7539	-0.2288934	0	0.6423678	0.6889839		$|
1340358	0	object/static/item/item_ryyk_blade.iff	0	766.2051	6.456854	233.8926	-0.228088	0	-0.6503741	0.6837337		$|
1340359	0	object/static/item/item_ryyk_blade.iff	0	763.6006	7.981083	233.7178	0.2726202	0	-0.27262	0.6524405		$|
1340360	0	object/static/item/item_ryyk_blade.iff	0	763.0439	8.016823	233.71	-0.2229666	0	-0.2229667	-0.6710336		$|
1340362	0	object/building/naboo/shuttleport_naboo.iff	0	267.8945	6	76.16064	3.20E-08	0	1	0	structure.municipal.starport:planet_map.map_loc	travel.cost|0|200|travel.ground_time|0|300|travel.is_shuttleport|0|1|travel.point_name|4|Theed Shuttleport B|travel.shuttle_available|0|1|travel.version|0|3|$|
1340373	0	object/building/naboo/shuttleport_naboo.iff	0	732.9829	6	206.3315	0.7071075	0	0.707106	0	structure.municipal.starport:planet_map.map_loc	travel.cost|0|200|travel.ground_time|0|300|travel.is_shuttleport|0|1|travel.point_name|4|Theed Shuttleport C|travel.shuttle_available|0|1|travel.version|0|3|$|
1340399	0	object/static/item/item_container_inorganic_minerals.iff	0	1017.744	6	147.498	0.6637312	0	0.7479711	0		$|
1340400	0	object/static/item/item_container_energy_gas.iff	0	1012.302	6	142.6206	0.7775728	0	0.6287929	0		$|
1340401	0	object/static/item/item_container_energy_liquid.iff	0	1013.272	6	143.1157	0.833712	0	0.5521995	0		$|
1340402	0	object/static/item/item_container_energy_radioactive.iff	0	1012.686	6	144.2554	0.5776088	0	0.8163137	0		$|
1340403	0	object/static/item/item_container_organic_food.iff	0	1016.393	6	146.8384	0.1006256	0	0.9949244	0		$|
1340404	0	object/static/item/item_container_organic_hide.iff	0	1015.377	6	146.5615	0.8653241	0	0.5012128	0		$|
1340405	0	object/static/item/item_crate_clothing_small.iff	0	1014.469	6	146.0366	0.9089658	0	-0.4168708	0		$|
1340406	0	object/static/structure/general/data_terminal_free_s1.iff	0	1013.74	6	145.1982	0.4580465	0	0.8889282	0		$|
1340408	0	object/static/structure/naboo/poi_nboo_tent_med.iff	0	1015.582	6	144.4077	0.9393727	0	0.3428977	0		$|
1340410	0	object/static/item/item_wood_staff.iff	0	770.1309	7.413901	213.7119	0.9921976	0	0	-0.1246748		$|
1340411	0	object/static/item/item_wood_staff.iff	0	769.9814	7.391406	213.7256	0.9901087	0	-0.004588657	-0.134483		$|
1340412	0	object/static/item/item_vibroaxe.iff	0	773.1045	7.239212	213.7227	0.05715762	0	0.04167447	0.8060033		$|
1392931	0	object/static/flora/flora_tree_palm_thk.iff	0	1530.801	1840.318	289.3296	0.9985381	0	0.001349342	-0.02996513		$|
1392933	0	object/static/flora/flora_tree_palm_thk.iff	0	1518.231	5.576035	117.4126	0.9789293	0	0.03231383	0.1825562		$|
1392935	0	object/static/flora/flora_tree_palm_thk.iff	0	995.9331	5.387376	522.9126	0.9887984	0	-0.01477374	0.07406972		$|
1392937	0	object/static/flora/flora_tree_palm_thk.iff	0	833.0962	1863.339	658.1143	0.9551188	0	0.03009555	-0.1898699		$|
1677390	0	object/building/naboo/hotel_naboo_theed.iff	0	435.5107	6	135.9614	1	0	0	0		$|
1677391	1677390	object/cell/cell.iff	1	0	0	0	1	1.40E-45	0	0		$|
1677392	1677390	object/cell/cell.iff	2	0	0	0	1	2.80E-45	0	0		$|
1677393	1677390	object/cell/cell.iff	3	0	0	0	1	4.20E-45	0	0		$|
1677394	1677390	object/cell/cell.iff	4	0	0	0	1	5.61E-45	0	0		$|
1143401	1677394	object/tangible/gambling/slot/standard.iff	4	4.316318	1.225609	-21.97647	0.9999194	0	0.01269773	0		$|
1143402	1677394	object/tangible/gambling/slot/standard.iff	4	0.2459383	1.224709	-21.81188	0.9999194	0	0.01269773	0		$|
1143403	1677394	object/tangible/gambling/wheel/roulette.iff	4	-1.037631	1.034905	-16.20719	0.9999194	0	0.01269773	0		$|
1143404	1677394	object/tangible/gambling/wheel/roulette.iff	4	9.581978	1.035866	-16.23914	0.9999194	0	0.01269773	0		$|
1143405	1677394	object/tangible/gambling/slot/standard.iff	4	8.353025	1.225609	-22.20151	0.9999194	0	0.01269773	0		$|
8085648	1677394	object/soundobject/soundobject_city_crowd_medium.iff	4	0.6238	0.999995	-0.085524	1	0	0	0		$|
1677395	1677390	object/cell/cell.iff	5	0	0	0	1	7.01E-45	0	0		$|
8085362	1677395	object/soundobject/soundobject_cantina_medium.iff	5	18.83335	1.283091	-1.012832	1	0	0	0		$|
1677396	1677390	object/cell/cell.iff	6	0	0	0	1	8.41E-45	0	0		$|
1143395	1677396	object/tangible/gambling/wheel/roulette.iff	6	-16.07905	1.001083	-0.005071335	0.9999194	0	0.01269773	0		$|
1143396	1677396	object/tangible/gambling/wheel/roulette.iff	6	-15.95443	1.001099	4.363089	0.9999194	0	0.01269773	0		$|
1143397	1677396	object/tangible/gambling/slot/standard.iff	6	-12.49402	1.000916	-0.119913	0.7160224	0	-0.6980781	0		$|
1143398	1677396	object/tangible/gambling/slot/standard.iff	6	-12.29191	1.000763	-0.1458296	0.6980715	0	0.716028	0		$|
1143399	1677396	object/tangible/gambling/slot/standard.iff	6	-12.0462	1.001022	4.155181	0.6889227	0	0.7248349	0		$|
1143400	1677396	object/tangible/gambling/slot/standard.iff	6	-12.2469	1.00087	4.186307	0.7248304	0	-0.6889277	0		$|
8085649	1677396	object/soundobject/soundobject_city_crowd_small.iff	6	-16.36225	1.000866	3.799246	1	0	0	0		$|
1677397	1677390	object/cell/cell.iff	7	0	0	0	1	9.81E-45	0	0		$|
1677398	1677390	object/cell/cell.iff	8	0	0	0	1	1.12E-44	0	0		$|
1677399	1677390	object/cell/cell.iff	9	0	0	0	1	1.26E-44	0	0		$|
1677400	1677390	object/cell/cell.iff	10	0	0	0	1	1.40E-44	0	0		$|
1677402	0	object/building/naboo/bank_naboo.iff	0	438.3008	6	75.15625	-0.7071066	0	0.7071068	0		$|
1677425	0	object/static/structure/naboo/archway_wide_s01.iff	0	365.625	6	144.1606	1	0	0	0		$|
1677428	0	object/building/naboo/parking_garage_naboo_style_1.iff	0	487.9058	6	15.74316	0.7071095	0	-0.707104	0		$|
1677430	0	object/building/naboo/thm_nboo_block_bldg_32x16_style_01.iff	0	438.3369	6	12.29736	1	0	0	0		$|
1677435	0	object/building/naboo/thm_nboo_block_bldg_64x32_s02.iff	0	543.9785	5.949439	18.31445	0.7348184	0	-0.6782638	0		$|
1677442	0	object/building/naboo/thm_nboo_block_bldg_64x32_style_01.iff	0	378.6621	6	11.67529	1	0	0	0		$|
1677473	0	object/static/structure/naboo/gate_wide_s02.iff	0	415.436	6	14.55225	1	0	0	0		$|
1677501	0	object/static/structure/naboo/planter_naboo_theed_style_1.iff	0	395.6978	6	10.8501	0.9950042	0	0.09983328	0		$|
1677503	0	object/building/naboo/thm_nboo_block_bldg_64x32_s02.iff	0	303.0161	6	8.587402	3.48E-07	0	1	0		$|
1677602	0	object/building/naboo/filler_building_naboo_theed_style_3.iff	0	201.6724	6	178.7383	0.7071097	0	-0.7071037	0		$|
1677606	0	object/building/naboo/thm_nboo_block_bldg_32x16_style_02.iff	0	151.0698	6	152.1377	0.7071086	0	0.7071049	0		$|
1677691	0	object/building/naboo/filler_building_naboo_theed_style_10.iff	0	491.771	6	67.01807	0.7071066	0	0.7071068	0		$|
1677694	0	object/building/naboo/filler_building_naboo_theed_style_4.iff	0	497.5479	6	97.42188	1	0	0	0		$|
1677713	0	object/static/structure/naboo/bridge_naboo_theed_style_1.iff	0	435.8882	0.3000921	245.3188	0.7314272	0	-0.6819195	0		$|
1677714	0	object/static/structure/naboo/seawall_straight_naboo_theed_style_4.iff	0	474.6704	0.03040361	225.9224	0.9989877	0	0.04498429	0		$|
1677715	0	object/static/structure/naboo/seawall_intersect_naboo_theed_style_2.iff	0	489.6519	0.2040548	182.3101	0.7899925	0	0.6131165	0		$|
1677716	0	object/static/structure/naboo/seawall_intersect_naboo_theed_style_2.iff	0	483.3584	0.2234391	215.2061	0.7382006	0	0.6745812	0		$|
1677717	0	object/static/structure/naboo/planter_naboo_theed_style_2.iff	0	473.5259	6	210.3872	1	0	0	0		$|
1677718	0	object/static/structure/naboo/bridge_naboo_theed_style_1.iff	0	419.228	0	352.5586	0.9409429	0	-0.3385653	0		$|
1677772	0	object/building/naboo/thm_nboo_block_bldg_32x16_style_01.iff	0	262.9702	6	281.5742	3.20E-08	0	1	0		$|
1677774	0	object/building/naboo/thm_nboo_block_bldg_32x16_style_02.iff	0	155.915	6	229.8428	0.9637709	0	-0.2667314	0		$|
1677778	0	object/building/naboo/filler_building_naboo_theed_style_8.iff	0	289.728	6	281.125	1	0	0	0		$|
1677786	0	object/building/naboo/filler_building_naboo_theed_style_10.iff	0	311.3525	6	256.3643	-0.4685944	0	0.8834134	0		$|
1677793	0	object/building/naboo/thm_nboo_block_bldg_64x32_s02.iff	0	130.5732	6	187.7412	0.7144215	0	0.6997156	0		$|
1677796	0	object/building/naboo/thm_nboo_block_bldg_64x32_style_01.iff	0	201.936	6.002296	254.2095	0.2238822	0	0.9746161	0		$|
1678063	0	object/static/installation/mockup_power_generator_photo_bio_style_1.iff	0	507.2939	6	12.47607	0.7071086	0	0.7071049	0		$|
1678096	0	object/static/structure/naboo/obelisk_naboo_theed_style_1.iff	0	531.3032	6	60.30176	1	0	0	0		$|
1688886	0	object/static/structure/naboo/arch_bronze_naboo_theed.iff	0	648	6	212	1	0	0	0		$|
1688889	0	object/static/structure/naboo/arch_triumph_naboo_theed.iff	0	648	6	90	2.01E-07	0	1	0		$|
1692066	0	object/building/naboo/guild_combat_naboo_style_01.iff	0	687.248	6	6.583984	1	0	0	0		$|
1692067	1692066	object/cell/cell.iff	1	0	0	0	1	1.40E-45	0	0		$|
1692068	1692066	object/cell/cell.iff	2	0	0	0	1	2.80E-45	0	0		$|
1692069	1692066	object/cell/cell.iff	3	0	0	0	1	4.20E-45	0	0		$|
1692070	1692066	object/cell/cell.iff	4	0	0	0	1	5.61E-45	0	0		$|
1692071	1692066	object/cell/cell.iff	5	0	0	0	1	7.01E-45	0	0		$|
1692072	1692066	object/cell/cell.iff	6	0	0	0	1	8.41E-45	0	0		$|
1692073	1692066	object/cell/cell.iff	7	0	0	0	1	9.81E-45	0	0		$|
1692074	1692066	object/cell/cell.iff	8	0	0	0	1	1.12E-44	0	0		$|
1692075	1692066	object/cell/cell.iff	9	0	0	0	1	1.26E-44	0	0		$|
1692076	0	object/building/naboo/guild_commerce_naboo_style_01.iff	0	774.4517	6	26.23975	1	0	0	0		$|
1692077	1692076	object/cell/cell.iff	1	0	0	0	1	1.40E-45	0	0		$|
1692078	1692076	object/cell/cell.iff	2	0	0	0	1	2.80E-45	0	0		$|
1692079	1692076	object/cell/cell.iff	3	0	0	0	1	4.20E-45	0	0		$|
1692080	1692076	object/cell/cell.iff	4	0	0	0	1	5.61E-45	0	0		$|
1692081	1692076	object/cell/cell.iff	5	0	0	0	1	7.01E-45	0	0		$|
1692082	1692076	object/cell/cell.iff	6	0	0	0	1	8.41E-45	0	0		$|
1692083	1692076	object/cell/cell.iff	7	0	0	0	1	9.81E-45	0	0		$|
1692084	1692076	object/cell/cell.iff	8	0	0	0	1	1.12E-44	0	0		$|
1692085	1692076	object/cell/cell.iff	9	0	0	0	1	1.26E-44	0	0		$|
1692097	0	object/building/naboo/power_generator_naboo_theed.iff	0	1348.812	5.962257	143.1177	0.9384437	0	0.3454321	0		$|
1695351	0	object/building/naboo/bank_naboo.iff	0	1012.793	6	63.88379	0.9078375	0	-0.4193223	0		$|
1697358	0	object/building/naboo/hospital_naboo_style01.iff	0	1126.238	6	66.44238	0.9384437	0	0.3454321	0	theme_park.dungeon.generic_spawner	spawn_table|4|datatables/spawning/ep3/ep3_theed_medical_center.iff|$|
1697359	1697358	object/cell/cell.iff	1	0	0	0	1	1.40E-45	0	0		$|
1697360	1697358	object/cell/cell.iff	2	0	0	0	1	2.80E-45	0	0		$|
7935458	1697360	object/soundobject/soundobject_city_crowd_medium.iff	2	17.94603	0.26	-0.833194	1	0	0	0		$|
1697361	1697358	object/cell/cell.iff	3	0	0	0	1	4.20E-45	0	0		$|
1697362	1697358	object/cell/cell.iff	4	0	0	0	1	5.61E-45	0	0		$|
1697363	1697358	object/cell/cell.iff	5	0	0	0	1	7.01E-45	0	0		$|
1697364	1697358	object/cell/cell.iff	6	0	0	0	1	8.41E-45	0	0		$|
7935459	1697364	object/soundobject/soundobject_city_crowd_medium.iff	6	-18.91978	0.26	-0.555158	1	0	0	0		$|
1697365	1697358	object/cell/cell.iff	7	0	0	0	1	9.81E-45	0	0		$|
1697366	1697358	object/cell/cell.iff	8	0	0	0	1	1.12E-44	0	0		$|
1697367	1697358	object/cell/cell.iff	9	0	0	0	1	1.26E-44	0	0		$|
1697368	1697358	object/cell/cell.iff	10	0	0	0	1	1.40E-44	0	0		$|
1697369	1697358	object/cell/cell.iff	11	0	0	0	1	1.54E-44	0	0		$|
1697370	1697358	object/cell/cell.iff	12	0	0	0	1	1.68E-44	0	0		$|
1697371	1697358	object/cell/cell.iff	13	0	0	0	1	1.82E-44	0	0		$|
1697372	1697358	object/cell/cell.iff	14	0	0	0	1	1.96E-44	0	0		$|
1697373	0	object/building/naboo/hotel_naboo_theed.iff	0	1080.167	6	5.581055	-0.3454323	0	0.9384437	0		$|
1697374	1697373	object/cell/cell.iff	1	0	0	0	1	1.40E-45	0	0		$|
1697375	1697373	object/cell/cell.iff	2	0	0	0	1	2.80E-45	0	0		$|
1697376	1697373	object/cell/cell.iff	3	0	0	0	1	4.20E-45	0	0		$|
1697377	1697373	object/cell/cell.iff	4	0	0	0	1	5.61E-45	0	0		$|
1143412	1697377	object/tangible/gambling/slot/standard.iff	4	4.436696	1.282366	-22.0512	0.9999973	0	-0.002301939	0		$|
1143413	1697377	object/tangible/gambling/slot/standard.iff	4	0.3633258	1.281465	-22.00856	0.9999973	0	-0.002301939	0		$|
1143414	1697377	object/tangible/gambling/wheel/roulette.iff	4	-1.116437	1.091661	-16.14818	0.9999973	0	-0.002301939	0		$|
1143415	1697377	object/tangible/gambling/wheel/roulette.iff	4	9.528282	1.092623	-16.15871	0.9999973	0	-0.002301939	0		$|
1143416	1697377	object/tangible/gambling/slot/standard.iff	4	8.478661	1.282366	-22.15512	0.9999973	0	-0.002301939	0		$|
1697378	1697373	object/cell/cell.iff	5	0	0	0	1	7.01E-45	0	0		$|
7995379	1697378	object/soundobject/soundobject_cantina_large.iff	5	20.68728	1.283091	1.325679	1	0	0	0		$|
1697379	1697373	object/cell/cell.iff	6	0	0	0	1	8.41E-45	0	0		$|
1143406	1697379	object/tangible/gambling/wheel/roulette.iff	6	-15.9844	1.001002	-0.09154231	0.9999734	0	-0.007301867	0		$|
1143407	1697379	object/tangible/gambling/wheel/roulette.iff	6	-16.03436	1.001017	4.27795	0.9999734	0	-0.007301867	0		$|
1143408	1697379	object/tangible/gambling/slot/standard.iff	6	-12.39781	1.000834	-0.0632983	-0.7019242	0	0.7122527	0		$|
1143409	1697379	object/tangible/gambling/slot/standard.iff	6	-12.19467	1.000682	-0.08058817	0.7122522	0	0.7019236	0		$|
1143410	1697379	object/tangible/gambling/slot/standard.iff	6	-12.12095	1.000941	4.226567	0.7032804	0	0.7109126	0		$|
1143411	1697379	object/tangible/gambling/slot/standard.iff	6	-12.32249	1.000789	4.249704	0.7109056	0	-0.7032879	0		$|
1697380	1697373	object/cell/cell.iff	7	0	0	0	1	9.81E-45	0	0		$|
1697381	1697373	object/cell/cell.iff	8	0	0	0	1	1.12E-44	0	0		$|
1697382	1697373	object/cell/cell.iff	9	0	0	0	1	1.26E-44	0	0		$|
1697383	1697373	object/cell/cell.iff	10	0	0	0	1	1.40E-44	0	0		$|
1697385	0	object/building/naboo/thm_nboo_block_bldg_32x16_style_01.iff	0	1000.883	6	144.395	0.4193224	0	0.9078373	0		$|
1697387	0	object/building/naboo/thm_nboo_block_bldg_32x16_style_02.iff	0	1183.409	6	33.63916	0.9078375	0	-0.4193223	0		$|
1697390	0	object/building/naboo/thm_nboo_block_bldg_64x32_s02.iff	0	971.7705	6	99.04639	0.9078375	0	-0.4193223	0		$|
1697399	0	object/building/naboo/filler_building_naboo_theed_style_5.iff	0	1047.287	6	34.04053	0.9384437	0	0.3454321	0		$|
1697417	0	object/building/naboo/thm_nboo_block_bldg_64x32_s02.iff	0	1508.622	6	14.53711	0.8834134	0	-0.4685945	0		$|
1697427	0	object/building/naboo/filler_building_naboo_theed_style_9.iff	0	1557.454	6	38.57422	-0.5062202	0	0.8624042	0		$|
1714366	0	object/building/naboo/filler_building_naboo_theed_style_5.iff	0	1196.478	6	68.51855	0.9078372	0	-0.4193229	0		$|
1714399	0	object/static/structure/naboo/gate_narrow_s01.iff	0	991.8701	6	127.4526	0.9078375	0	-0.4193223	0		$|
1714425	0	object/static/structure/naboo/nboo_imprv_metal_fence_wall_lg_s02.iff	0	1076.641	6	46.91895	0.4193224	0	0.9078373	0		$|
1714426	0	object/static/structure/naboo/gate_wide_s01.iff	0	1082.14	6	53.37695	0.9078374	0	-0.4193224	0		$|
1714427	0	object/static/structure/naboo/nboo_imprv_metal_fence_wall_lg_s02.iff	0	1087.641	6	59.83594	0.9078375	0	-0.4193223	0		$|
1714428	0	object/static/structure/naboo/nboo_imprv_metal_fence_wall_lg_s02.iff	0	1132.326	6	21.79053	0.9078375	0	-0.4193223	0		$|
1714429	0	object/static/structure/naboo/gate_wide_s01.iff	0	1126.825	6	15.32666	0.4193223	0	0.9078375	0		$|
1714430	0	object/static/structure/naboo/nboo_imprv_metal_fence_wall_lg_s02.iff	0	1121.324	6	8.866699	0.4193223	0	0.9078375	0		$|
1714529	0	object/static/structure/general/planter_generic_style_1.iff	0	1200.627	6	127.8169	-0.6797258	0	0.7334659	0		$|
1714532	0	object/static/structure/general/planter_generic_style_1.iff	0	1260.206	13.95175	94.11133	0.9619915	0	0.2730794	0		$|
1714633	0	object/static/structure/general/planter_generic_style_1.iff	0	1315.399	13.97677	48.04785	0.00420379	0	0.9999914	0		$|
1714769	0	object/building/naboo/filler_building_naboo_theed_style_10.iff	0	766.313	6	162.0308	0.7032721	0	0.7109208	0		$|
1714772	0	object/building/naboo/filler_building_naboo_theed_style_4.iff	0	771.7725	6	203.7354	0.9999832	0	-0.005796943	0		$|
1714798	0	object/static/structure/naboo/nboo_imprv_short_curved_wall_large_s01.iff	0	703.7632	6	39.01514	-0.7071061	0	0.7071074	0		$|
1714799	0	object/static/structure/naboo/nboo_imprv_short_curved_wall_large_s01.iff	0	678.6958	6	47.01611	-3.12E-08	0	1	0		$|
1717482	0	object/building/naboo/thm_nboo_block_bldg_64x32_style_01.iff	0	591.0425	6	143.1152	0.9238799	0	0.3826827	0		$|
1717485	0	object/building/naboo/thm_nboo_block_bldg_64x32_s02.iff	0	595.7793	6	253.4058	0.7071218	0	0.7070912	0		$|
1717490	0	object/building/naboo/thm_nboo_block_bldg_32x16_style_01.iff	0	591.9775	6	306.5381	0.7071236	0	0.7070894	0		$|
1717492	0	object/building/naboo/thm_nboo_block_bldg_32x16_style_02.iff	0	595.2383	6	347.3726	0.7071205	0	-0.7070925	0		$|
1717536	0	object/building/naboo/filler_building_naboo_theed_style_4.iff	0	589.8608	6	204.2202	-0.7071066	0	0.7071068	0		$|
1717576	0	object/building/naboo/filler_building_naboo_theed_style_10.iff	0	699.3462	6	252.1953	-0.7071066	0	0.7071069	0		$|
1717579	0	object/building/naboo/filler_building_naboo_theed_style_2.iff	0	598.7808	6	184.6011	-0.3374472	0	0.9413445	0		$|
1717658	0	object/building/naboo/thm_nboo_block_bldg_64x32_style_01.iff	0	831.3428	6	298.2739	0.7071087	0	-0.7071047	0		$|
1717666	0	object/building/naboo/filler_building_naboo_theed_style_5.iff	0	709.9805	6	324.5034	1	0	0	0		$|
1717748	0	object/static/structure/naboo/gate_narrow_s01.iff	0	1015.16	6	35.71436	0.02999437	0	0.99955	0		$|
1717749	0	object/static/structure/naboo/gate_narrow_s01.iff	0	984.6357	6.537589	61.56152	-0.6782649	0	0.734817	0		$|
1717750	0	object/static/structure/general/planter_generic_style_2.iff	0	1011.24	6.474341	31.26172	-0.5938183	0	0.804599	0		$|
1717753	0	object/static/structure/general/planter_generic_style_2.iff	0	981.8989	6.505969	56.76807	0.9375077	0	0.3479646	0		$|
1717754	0	object/static/structure/naboo/gate_narrow_s01.iff	0	1041.131	6.531715	66.1123	0.7279998	0	0.6855773	0		$|
1717755	0	object/static/structure/general/planter_generic_style_2.iff	0	1045.584	6.40522	62.19238	0.1490443	0	0.9888303	0		$|
1717757	0	object/static/structure/naboo/gate_narrow_s01.iff	0	1010.579	6.505966	92.17725	0.99955	0	-0.02999392	0		$|
1717759	0	object/static/structure/general/planter_generic_style_2.iff	0	1005.354	6.53759	95.59814	0.4168699	0	0.9089662	0		$|
1785352	0	object/static/structure/naboo/seawall_corner.iff	0	485.5879	0	224.98	0.9992001	0	0.03998929	0		$|
1785353	0	object/static/structure/naboo/seawall_straight_naboo_theed_style_1.iff	0	482.6172	0	225.2183	0.9989877	0	0.04498488	0		$|
1785355	0	object/static/structure/naboo/seawall_straight_naboo_theed_style_1.iff	0	483.8711	0	215.0913	0.6822213	0	0.7311458	0		$|
1785356	0	object/static/structure/naboo/seawall_straight_naboo_theed_style_1.iff	0	493.1006	0.06897783	173.6621	0.8138784	0	0.5810352	0		$|
1785357	0	object/static/structure/naboo/seawall_straight_naboo_theed_style_1.iff	0	498.2637	0.06897783	158.5928	0.8138784	0	0.5810352	0		$|
1785358	0	object/static/structure/naboo/seawall_straight_naboo_theed_style_4.iff	0	561.7363	0.05057618	14.79932	0.6785562	0	0.7345484	0		$|
1785361	0	object/static/structure/naboo/seawall_intersect_naboo_theed_style_2.iff	0	497.8223	0.2213594	157.957	0.8525237	0	0.5226886	0		$|
1785386	0	object/static/structure/naboo/seawall_intersect_naboo_theed_style_2.iff	0	563.2383	0.2213594	47.56689	0.7616097	0	0.6480359	0		$|
1785387	0	object/static/structure/naboo/seawall_intersect_naboo_theed_style_1.iff	0	848.8569	0	449.8232	0.8048355	0	0.593498	0		$|
1785388	0	object/static/structure/naboo/seawall_intersect_naboo_theed_style_1.iff	0	868.9102	0	386.5259	0.8048359	0	0.5934973	0		$|
1785389	0	object/static/structure/naboo/seawall_straight_naboo_theed_style_2.iff	0	878.6997	0.09888346	230.9927	0.5276199	0	0.8494805	0		$|
1785390	0	object/static/structure/naboo/seawall_intersect_naboo_theed_style_1.iff	0	869.1865	0	364.1528	0.1646467	0	0.9863526	0		$|
1785425	0	object/static/structure/naboo/seawall_straight_naboo_theed_style_4.iff	0	828.019	0.1267752	130.9976	0.5190991	0	0.854714	0		$|
1785459	0	object/static/structure/naboo/seawall_intersect_naboo_theed_style_2.iff	0	820.0615	0.2275605	116.377	0.6748756	0	0.7379315	0		$|
1785491	0	object/static/structure/naboo/seawall_corner.iff	0	859.3486	0.162507	14.40479	0.9442793	0	0.3291453	0		$|
1785590	0	object/static/structure/naboo/seawall_intersect_naboo_theed_style_1.iff	0	891.6421	0	79.4502	0.9110388	0	0.4123206	0		$|
1785592	0	object/static/structure/naboo/seawall_intersect_naboo_theed_style_1.iff	0	872.8906	0	103.0396	0.8938212	0	0.4484234	0		$|
1785593	0	object/static/structure/naboo/seawall_straight_naboo_theed_style_4.iff	0	873.125	0.189807	151.8101	0.8577087	0	-0.514136	0		$|
1785594	0	object/static/structure/naboo/seawall_straight_naboo_theed_style_4.iff	0	888.1904	0.1898067	179.9946	0.8577087	0	-0.514136	0		$|
1785595	0	object/static/structure/naboo/seawall_rocks_naboo_theed_style_1.iff	0	928.5801	2047.701	47.26367	-0.4757325	0	0.8795901	0		$|
1785596	0	object/static/structure/naboo/seawall_rocks_naboo_theed_style_1.iff	0	942.2217	2047.421	28.68701	-0.4753519	0	0.8788865	0.007355898		$|
1785599	0	object/static/structure/naboo/seawall_corner.iff	0	856.1665	0.2003439	122.3403	-0.2530161	0	0.9674626	0		$|
1785601	0	object/static/structure/naboo/seawall_straight_naboo_theed_style_3.iff	0	900.186	0.1898067	202.0352	0.8602685	0	-0.5098412	0		$|
1785602	0	object/static/structure/naboo/seawall_intersect_naboo_theed_style_2.iff	0	889.0132	0.3478505	179.6685	0.8602687	0	-0.509841	0		$|
1785603	0	object/static/structure/naboo/seawall_intersect_naboo_theed_style_1.iff	0	918.8984	0	236.2168	0.5360876	0	0.8441624	0		$|
1785604	0	object/static/structure/naboo/seawall_intersect_naboo_theed_style_1.iff	0	928.1182	0	255.3516	0.5360875	0	0.8441624	0		$|
1785605	0	object/static/structure/naboo/seawall_rocks_naboo_theed_style_1.iff	0	921.8066	2047.426	325.269	-0.5873316	0	0.8092845	-0.008093115		$|
1785606	0	object/static/structure/naboo/seawall_rocks_naboo_theed_style_1.iff	0	913.9155	2046.936	348.4243	-0.5873316	0	0.8092845	-0.008093115		$|
1785660	0	object/static/structure/general/planter_generic_style_4.iff	0	1245.108	6	116.0093	0.6248984	0	0.7807062	0		$|
1785689	0	object/tangible/terminal/terminal_mission.iff	0	1277.162	6.416582	89.11865	-0.3360304	0	0.9418511	0		$|
1785691	0	object/tangible/terminal/terminal_mission.iff	0	1307.21	6.411098	63.43604	-0.33603	0	0.941851	0		$|
1785692	0	object/static/structure/general/planter_generic_style_1.iff	0	1171.921	6	151.0396	-0.6797259	0	0.733466	0		$|
1785694	0	object/static/structure/general/planter_generic_style_4.iff	0	1153.6	6	188.4077	0.624898	0	0.780706	0		$|
1785715	0	object/tangible/terminal/terminal_mission.iff	0	695.4707	6	46.99072	0.7071089	0	-0.7071046	0		$|
1785716	0	object/tangible/terminal/terminal_mission.iff	0	678.9639	6	46.96387	0.7071069	0	0.707107	0		$|
1785717	0	object/tangible/terminal/terminal_mission.iff	0	760.1304	6	59.51807	1	0	0	0		$|
1785718	0	object/tangible/terminal/terminal_mission.iff	0	789.2827	6	59.24268	1	0	0	0		$|
1785720	0	object/tangible/terminal/terminal_mission.iff	0	688.6753	6	175.4424	-0.7071069	0	0.707107	0		$|
1785721	0	object/tangible/terminal/terminal_mission.iff	0	688.6523	6	166.2324	-0.7071069	0	0.707107	0		$|
1785722	0	object/tangible/terminal/terminal_mission.iff	0	792.7324	6	314.4204	0.707107	0	0.7071069	0		$|
1785723	0	object/tangible/terminal/terminal_mission.iff	0	792.7471	6	305.5723	0.7071069	0	0.707107	0		$|
1785726	0	object/tangible/terminal/terminal_mission.iff	0	365.2695	6	306.5234	0.4311766	0	0.9022676	0		$|
1785727	0	object/tangible/terminal/terminal_mission.iff	0	371.2358	6	313.4673	0.431177	0	0.902268	0		$|
1785728	0	object/tangible/terminal/terminal_mission.iff	0	427.9868	6.9912	162.1323	0.9171205	0	-0.3986101	0		$|
1785729	0	object/tangible/terminal/terminal_mission.iff	0	442.5835	6.948685	162.3799	0.9229969	0	0.3848073	0		$|
1785915	0	object/static/structure/naboo/streetlamp_naboo_theed_style_1.iff	0	972.7856	6.474342	60.67822	0.9026105	0	-0.4304582	0		$|
1785916	0	object/static/structure/naboo/streetlamp_naboo_theed_style_1.iff	0	1009.604	6.537589	103.9336	0.9089658	0	-0.4168708	0		$|
1785917	0	object/static/structure/naboo/streetlamp_naboo_theed_style_1.iff	0	1052.811	6.505966	67.08838	0.9026108	0	-0.4304576	0		$|
1785918	0	object/static/structure/naboo/streetlamp_naboo_theed_style_1.iff	0	1015.994	6.474341	23.84326	0.9026108	0	-0.4304576	0		$|
1805352	0	object/static/structure/naboo/streetlamp_naboo_theed_style_1.iff	0	938.374	6	88.15967	0.9026108	0	-0.4304577	0		$|
1805353	0	object/static/structure/naboo/streetlamp_naboo_theed_style_1.iff	0	876.1997	6	105.4478	0.9637709	0	-0.2667314	0		$|
1805355	0	object/static/structure/naboo/streetlamp_naboo_theed_style_1.iff	0	907.2964	6	196.6138	0.7350877	0	0.677972	0		$|
1805356	0	object/static/structure/naboo/streetlamp_naboo_theed_style_1.iff	0	874.5894	6	235.0654	0.971338	0	0.2377026	0		$|
1805361	0	object/static/structure/naboo/streetlamp_naboo_theed_style_1.iff	0	977.2627	6	124.6035	0.9110385	0	-0.4123212	0		$|
1805367	0	object/static/structure/naboo/streetlamp_naboo_theed_style_1.iff	0	1196.141	6	131.0747	0.9110385	0	-0.4123212	0		$|
1805369	0	object/static/structure/naboo/streetlamp_naboo_theed_style_1.iff	0	1204.735	6	78.07715	0.9110385	0	-0.4123212	0		$|
1805372	0	object/static/structure/naboo/streetlamp_naboo_theed_style_1.iff	0	1205.259	5.999999	52.13916	0.9047515	0	-0.4259399	0		$|
1805375	0	object/static/structure/naboo/streetlamp_naboo_theed_style_1.iff	0	1350.196	6	25.50732	0.9110385	0	-0.4123212	0		$|
1805388	0	object/static/structure/naboo/streetlamp_naboo_theed_style_1.iff	0	1123.805	6	8.908203	0.9110385	0	-0.4123212	0		$|
1805392	0	object/static/structure/naboo/streetlamp_naboo_theed_style_1.iff	0	1550.688	6	32.42676	0.9663898	0	-0.257081	0		$|
1805404	0	object/static/structure/naboo/streetlamp_naboo_theed_style_1.iff	0	815.0073	6	264.9175	1	0	0	0		$|
1805405	0	object/static/structure/naboo/streetlamp_naboo_theed_style_1.iff	0	709.2305	6	231.8232	1	0	0	0		$|
1805409	0	object/static/structure/naboo/streetlamp_naboo_theed_style_1.iff	0	844.3262	6	450.1416	0.9847265	0	-0.1741081	0		$|
1805412	0	object/static/structure/naboo/streetlamp_naboo_theed_style_1.iff	0	864.1826	6	385.2534	1	0	0	0		$|
1805413	0	object/static/structure/naboo/streetlamp_naboo_theed_style_1.iff	0	881.0313	5.620525	486.0166	0.9887711	0	-0.1494381	0		$|
1805420	0	object/static/structure/naboo/streetlamp_naboo_theed_style_1.iff	0	377.1826	6	314.9277	0.9068701	0	-0.4214104	0		$|
1805421	0	object/static/structure/naboo/streetlamp_naboo_theed_style_1.iff	0	446.437	6	269.0664	0.9984879	0	0.05497234	0		$|
1805422	0	object/static/structure/naboo/streetlamp_naboo_theed_style_1.iff	0	424.854	6	225.855	0.9993876	0	0.03499286	0		$|
1805424	0	object/static/structure/naboo/streetlamp_naboo_theed_style_1.iff	0	363.8726	6	201.1694	0.99995	0	-0.009999855	0		$|
1805425	0	object/static/structure/naboo/streetlamp_naboo_theed_style_1.iff	0	305.9165	6	188.2363	1	0	0	0		$|
1805426	0	object/static/structure/naboo/streetlamp_naboo_theed_style_1.iff	0	302.0737	6	250.1763	0.9568021	0	-0.29074	0		$|
1805427	0	object/static/structure/naboo/streetlamp_naboo_theed_style_1.iff	0	258.3218	6	269.79	1	0	0	0		$|
1805428	0	object/static/structure/naboo/streetlamp_naboo_theed_style_1.iff	0	250.292	6	231.3379	1	0	0	0		$|
1805431	0	object/static/structure/naboo/streetlamp_naboo_theed_style_1.iff	0	171.8872	6	187.0762	1	0	0	0		$|
1805432	0	object/static/structure/naboo/streetlamp_naboo_theed_style_1.iff	0	191.4517	6	156.6636	1	0	0	0		$|
1805447	0	object/static/structure/naboo/streetlamp_naboo_theed_style_1.iff	0	522.936	6.204572	116.7192	0.96639	0	-0.2570806	0		$|
1805448	0	object/static/structure/naboo/streetlamp_naboo_theed_style_1.iff	0	466.7139	6.52328	46.72607	1	0	0	0		$|
1805449	0	object/static/structure/naboo/streetlamp_naboo_theed_style_1.iff	0	466.6821	6.505966	103.5386	1	0	0	0		$|
1805450	0	object/static/structure/naboo/streetlamp_naboo_theed_style_1.iff	0	409.9019	6.537591	103.5361	1	0	0	0		$|
1805451	0	object/static/structure/naboo/streetlamp_naboo_theed_style_1.iff	0	409.4336	6.474343	46.15479	1	0	0	0		$|
1805453	0	object/static/structure/naboo/streetlamp_naboo_theed_style_1.iff	0	451.0322	6	3.654297	1	0	0	0		$|
1805459	0	object/static/structure/naboo/streetlamp_naboo_theed_style_1.iff	0	156.957	6	135.4624	1	0	0	0		$|
2125362	0	object/static/structure/naboo/nboo_imprv_pillar_pillar_s01.iff	0	1463.791	2046.794	121.353	0.4193229	0	0.9078372	0		$|
2125364	0	object/static/structure/naboo/nboo_imprv_pillar_pillar_s01.iff	0	1455.748	2046.794	111.665	-0.3454311	0	0.9384436	0		$|
2776036	0	object/tangible/terminal/terminal_bazaar.iff	0	1027.083	6.55	80.4624	-0.345432	0	0.9384438	0		$|
2776037	0	object/tangible/terminal/terminal_bazaar.iff	0	1029.692	6.55	49.80078	0.907837	0	-0.4193231	0		$|
2776038	0	object/tangible/terminal/terminal_bazaar.iff	0	998.5361	6.55	47.07178	0.9384437	0	0.3454321	0		$|
2776039	0	object/tangible/terminal/terminal_bazaar.iff	0	996.0552	6.55	78.11035	0.4193231	0	0.9078373	0		$|
2776040	0	object/tangible/terminal/terminal_bazaar.iff	0	460.2988	6.55	75.16895	0.7071074	0	-0.7071061	0		$|
2776041	0	object/tangible/terminal/terminal_bazaar.iff	0	438.3237	6.55	53.15186	1	0	0	0		$|
2776042	0	object/tangible/terminal/terminal_bazaar.iff	0	416.2842	6.55	75.19873	0.7071074	0	0.7071061	0		$|
2776043	0	object/tangible/terminal/terminal_bazaar.iff	0	438.3091	6.55	97.12891	-3.20E-08	0	1	0		$|
2776044	0	object/tangible/terminal/terminal_bazaar.iff	0	1133.622	6	160.1021	0.4193225	0	0.9078373	0		$|
2776045	0	object/tangible/terminal/terminal_bazaar.iff	0	1125.842	6	150.9653	0.4193225	0	0.9078373	0		$|
2776046	0	object/tangible/furniture/all/frn_bench_generic.iff	0	1131.677	6	157.8174	0.4193225	0	0.9078373	0		$|
2776047	0	object/tangible/furniture/all/frn_bench_generic.iff	0	1127.787	6	153.2485	0.4193225	0	0.9078373	0		$|
2776049	0	object/tangible/furniture/all/frn_bench_generic.iff	0	725.5913	6	118.1982	0.707107	0	-0.7071065	0		$|
2776050	0	object/tangible/furniture/all/frn_bench_generic.iff	0	725.4106	6	130.4482	0.7071069	0	-0.7071065	0		$|
2776051	0	object/tangible/furniture/all/frn_bench_generic.iff	0	793.1787	6	48.37305	0.7071066	0	0.7071068	0		$|
3495440	0	object/static/item/item_tank_gas.iff	0	257.1343	6	119.4155	0.833712	0	-0.5521995	0		$|
3495441	0	object/static/item/item_tool_turbine_generator.iff	0	256.9146	6	116.9224	0.833712	0	-0.5521995	0		$|
3495442	0	object/static/item/item_comp_blaster_cannon.iff	0	257.126	6	115.5513	0.6699963	0	0.7423644	0		$|
3495443	0	object/static/structure/general/debris_deathstar_small_tube.iff	0	255.9263	6	121.1855	0.9933948	0	-0.1147467	0		$|
3495444	0	object/static/structure/general/debris_deathstar_small_chunk.iff	0	258.5879	6	115.1392	0.833712	0	-0.5521995	0		$|
3495445	0	object/static/structure/general/debris_deathstar_small_tube.iff	0	256.6348	6	120.4844	-0.2043469	0	0.9788985	0		$|
3495457	0	object/static/structure/general/droid_r2_powerdown.iff	0	256.2075	6	118.6494	0.4932279	0	0.8699002	0		$|
3495458	0	object/static/structure/naboo/poi_nboo_tent_med.iff	0	258.4688	6	118.8975	0.9880115	0	-0.1543801	0		$|
3495459	0	object/static/structure/general/debris_deathstar_small_tube.iff	0	256.9565	6	122.0942	-0.5403025	0	0.8414709	0		$|
3495460	0	object/static/structure/general/debris_deathstar_small_tube.iff	0	257.665	6	121.3931	0.7133028	0	0.7008566	0		$|
3495463	0	object/static/item/item_tank_gas.iff	0	925.937	6	120.0537	0.9323273	0	0.3616154	0		$|
3495464	0	object/static/item/item_tool_turbine_generator.iff	0	922.6855	6	124.4214	0.7807068	0	0.6248974	0		$|
3495465	0	object/static/item/item_comp_blaster_cannon.iff	0	921.7178	6	125.4155	-0.5019009	0	0.8649248	0		$|
3495466	0	object/static/structure/general/debris_deathstar_small_tube.iff	0	923.6797	6	121.3267	0.8892925	0	-0.4573388	0		$|
3495467	0	object/static/structure/general/debris_deathstar_small_chunk.iff	0	920.29	6	124.895	0.7807068	0	0.6248974	0		$|
3495468	0	object/static/structure/general/debris_deathstar_small_tube.iff	0	924.6733	6	121.2681	0.1535935	0	0.988134	0		$|
3495469	0	object/static/structure/general/droid_r2_powerdown.iff	0	925.5234	6	121.1797	-0.4252181	0	0.9050909	0		$|
3495470	0	object/static/structure/naboo/poi_nboo_tent_med.iff	0	922.5732	6	121.9106	0.4491344	0	0.8934641	0		$|
3495471	0	object/static/structure/general/debris_deathstar_small_tube.iff	0	923.8555	6	122.689	-0.2092391	0	0.9778644	0		$|
3495472	0	object/static/structure/general/debris_deathstar_small_tube.iff	0	924.8501	6	122.6279	0.9144712	0	0.404651	0		$|
3495473	0	object/static/item/item_comp_blaster_cannon.iff	0	919.4858	6	123.9546	0.5347437	0	0.8450142	0		$|
3955353	0	object/tangible/terminal/terminal_bazaar.iff	0	1129.733	6	155.5337	0.4193225	0	0.9078373	0		$|
3955356	0	object/static/structure/naboo/nboo_imprv_short_curved_wall_large_s01.iff	0	1121.36	6.000001	147.4673	0.9384437	0	0.3454321	0		$|
3955357	0	object/static/structure/naboo/nboo_imprv_short_curved_wall_large_s01.iff	0	1137.006	6	153.6025	0.9078374	0	-0.4193225	0		$|
3955360	0	object/static/structure/naboo/nboo_imprv_pillar_pillar_s03.iff	0	1132.758	6	148.6836	0.9401592	0	0.3407355	0		$|
3955361	0	object/static/structure/naboo/nboo_imprv_pillar_pillar_s03.iff	0	1136.748	6	153.3794	0.9401594	0	0.3407348	0		$|
3955363	0	object/tangible/terminal/terminal_bazaar.iff	0	793.1494	6	45.22754	0.7000041	0	0.7141377	0		$|
3955364	0	object/tangible/terminal/terminal_bazaar.iff	0	793.25	6	51.63477	0.7000041	0	0.7141377	0		$|
4015358	0	object/tangible/terminal/terminal_mission_imperial.iff	0	673.0825	6	314.4609	0.7071069	0	0.7071066	0		$|
4105353	0	object/static/structure/general/streetlamp_small_green_style_01.iff	0	1026.28	5.905131	239.4463	0.9492354	0	0.3145665	0		$|
4105354	0	object/static/structure/general/streetlamp_small_green_style_01.iff	0	1067.992	5.873508	204.2388	0.9305076	0	0.3662725	0		$|
4105355	0	object/tangible/terminal/terminal_bazaar.iff	0	1025.29	6	238.3755	-0.338946	0	0.9408059	0		$|
4105356	0	object/tangible/terminal/terminal_bazaar.iff	0	1067.031	6	202.8857	-0.3662726	0	0.9305077	0		$|
4295618	0	object/static/structure/naboo/streetlamp_naboo_theed_style_1.iff	0	622.978	6	312.1089	1	0	0	0		$|
4295619	0	object/static/structure/naboo/streetlamp_naboo_theed_style_1.iff	0	672.9927	6	312.2295	1	0	0	0		$|
4305368	0	object/soundobject/soundobject_city_crowd_sentients.iff	0	1282.951	6	57.12305	1	0	0	0		$|
4305372	0	object/soundobject/soundobject_city_crowd_sentients.iff	0	1238.544	6	7.270508	1	0	0	0		$|
4305379	0	object/soundobject/soundobject_city_crowd_sentients_large.iff	0	1203.461	6	25.75684	1	0	0	0		$|
4305387	0	object/soundobject/soundobject_city_crowd_medium.iff	0	1220.776	6	98.53711	1	0	0	0		$|
4305388	0	object/soundobject/soundobject_city_crowd_sentients_large.iff	0	1161.516	6	128.0259	1	0	0	0		$|
4305405	0	object/tangible/terminal/terminal_mission.iff	0	671	6	101	1	0	0	0		$|
4305413	0	object/tangible/terminal/terminal_mission.iff	0	626	6	101	1	0	0	0		$|
5125660	0	object/building/naboo/filler_building_naboo_theed_style_2.iff	0	260.8247	6	107.5039	0.8768211	0	0.4808168	0		$|
5475479	0	object/building/naboo/guild_theater_naboo_s01.iff	0	351.5664	6	85.16309	1	0	0	0		$|
5475480	5475479	object/cell/cell.iff	1	0	0	0	1	1.40E-45	0	0		$|
8085393	5475480	object/soundobject/soundobject_city_crowd_sentients_large.iff	1	-2.311937	0.6	-6.657996	1	0	0	0		$|
5475481	5475479	object/cell/cell.iff	2	0	0	0	1	2.80E-45	0	0		$|
5475482	5475479	object/cell/cell.iff	3	0	0	0	1	4.20E-45	0	0		$|
5475483	5475479	object/cell/cell.iff	4	0	0	0	1	5.61E-45	0	0		$|
5475484	5475479	object/cell/cell.iff	5	0	0	0	1	7.01E-45	0	0		$|
5475485	5475479	object/cell/cell.iff	6	0	0	0	1	8.41E-45	0	0		$|
8085394	5475485	object/soundobject/soundobject_city_crowd_cheering.iff	6	-0.64942	1.523103	34.16712	1	0	0	0		$|
5475486	5475479	object/cell/cell.iff	7	0	0	0	1	9.81E-45	0	0		$|
5475487	5475479	object/cell/cell.iff	8	0	0	0	1	1.12E-44	0	0		$|
5475488	5475479	object/cell/cell.iff	9	0	0	0	1	1.26E-44	0	0		$|
5475489	5475479	object/cell/cell.iff	10	0	0	0	1	1.40E-44	0	0		$|
5555411	0	object/static/structure/naboo/streetlamp_naboo_theed_style_1.iff	0	578.7944	6	197.5156	1	0	0	0		$|
5555418	0	object/static/structure/naboo/streetlamp_naboo_theed_style_1.iff	0	502.1274	6	449.2466	1	0	0	0		$|
5555444	0	object/static/structure/naboo/streetlamp_naboo_theed_style_1.iff	0	611.4438	6	259.8262	1	0	0	0		$|
5555445	0	object/static/structure/naboo/streetlamp_naboo_theed_style_1.iff	0	688.8203	6	252.3184	1	0	0	0		$|
5555474	0	object/static/structure/general/streetlamp_small_style_01.iff	0	626.793	13.38383	313.2437	1	0	0	0		$|
5555475	0	object/static/structure/general/streetlamp_small_style_01.iff	0	669.2808	13.36222	313.2026	1	0	0	0		$|
5555484	0	object/static/structure/general/streetlamp_small_style_01.iff	0	701.7891	8.394625	38.50049	1	0	0	0		$|
5555485	0	object/static/structure/general/streetlamp_small_style_01.iff	0	672.7554	8.376836	38.54834	1	0	0	0		$|
5555486	0	object/static/structure/general/streetlamp_small_style_01.iff	0	788.8018	8.403332	58.4292	1	0	0	0		$|
5555487	0	object/static/structure/general/streetlamp_small_style_01.iff	0	760.1558	8.403332	58.44678	1	0	0	0		$|
5555498	0	object/static/structure/naboo/streetlamp_naboo_theed_style_1.iff	0	895.6826	6	273.562	0.7038446	0	0.7103542	0		$|
5555513	0	object/static/structure/general/streetlamp_large_green_style_02.iff	0	725.2441	6	124.2188	0.7071076	0	-0.7071059	0		$|
5555514	0	object/static/structure/naboo/streetlamp_naboo_theed_style_1.iff	0	729.833	6	287.5532	1	0	0	0		$|
5625356	0	object/static/structure/naboo/streetlamp_naboo_theed_style_1.iff	0	1264.774	6	91.50684	0.9047515	0	-0.4259397	0		$|
5625357	0	object/static/structure/naboo/streetlamp_naboo_theed_style_1.iff	0	1311.73	6	51.86963	0.9047515	0	-0.4259397	0		$|
5625365	0	object/static/structure/naboo/streetlamp_naboo_theed_style_1.iff	0	1085.15	6	59.86523	0.9026105	0	-0.4304582	0		$|
5625380	0	object/static/structure/naboo/streetlamp_naboo_theed_style_1.iff	0	562.3989	6.316228	47.43359	0.9968017	0	-0.07991473	0		$|
5625384	0	object/static/structure/general/streetlamp_small_blue_style_02.iff	0	502.7871	2.489869	168.8921	0.9855848	0	-0.1691823	0		$|
5625385	0	object/static/structure/general/streetlamp_small_blue_style_02.iff	0	500.1509	2.484098	176.415	0.9847265	0	-0.1741081	0		$|
5625419	0	object/static/structure/general/streetlamp_small_red_style_01.iff	0	509.3662	5.873508	12.35791	1	0	0	0		$|
5625421	0	object/static/structure/general/streetlamp_small_blue_style_01.iff	0	473.8188	10.58531	15.45459	-0.00579635	0	0	0		$|
5695358	0	object/static/structure/general/streetlamp_small_style_01.iff	0	665.8179	27.13352	212.1221	0.9249091	0	0	0		$|
5695359	0	object/static/structure/general/streetlamp_small_style_01.iff	0	630.1914	27.14099	211.7861	0.9286647	0	0	0		$|
5695360	0	object/static/structure/general/streetlamp_small_style_01.iff	0	665.8433	27.12234	90.11572	0.9229965	0	0	0		$|
5695361	0	object/static/structure/general/streetlamp_small_style_01.iff	0	630.1885	27.15447	89.88721	0.9323275	0	0	0		$|
5695362	0	object/static/structure/naboo/streetlamp_naboo_theed_style_1.iff	0	663.2827	6	20.46191	1	0	0	0		$|
5785352	0	object/static/structure/naboo/streetlamp_naboo_theed_style_1.iff	0	844.6772	6	163.0781	0.8549209	0	-0.5187584	0		$|
5785353	0	object/static/structure/naboo/streetlamp_naboo_theed_style_1.iff	0	886.2383	6	311.0215	0.9875913	0	-0.1570458	0		$|
5785354	0	object/static/structure/naboo/streetlamp_naboo_theed_style_1.iff	0	484.5469	6	224.9438	0.7314182	0	-0.6819291	0		$|
5785356	0	object/tangible/crafting/station/public_food_station.iff	0	1105.633	6	13.16895	0.9384437	0	0.3454321	0		$|
5785362	0	object/tangible/crafting/station/public_clothing_station.iff	0	1082.051	6	33.84961	0.423857	0	0.905729	0		$|
5785365	0	object/tangible/crafting/station/public_structure_station.iff	0	1071.326	6	43.18066	0.907837	0	-0.4193231	0		$|
5785368	0	object/tangible/crafting/station/public_weapon_station.iff	0	1082.38	6	69.93066	-0.345432	0	0.938444	0		$|
5785372	0	object/tangible/crafting/station/public_food_station.iff	0	421.5459	6	113.5	0	0	1	0		$|
5785375	0	object/tangible/crafting/station/public_clothing_station.iff	0	452.4028	6	113.2002	-0.7071069	0	0.707107	0		$|
5785377	0	object/tangible/crafting/station/public_structure_station.iff	0	487.2998	6	98.05029	-0.7071069	0	0.707107	0		$|
5785378	0	object/tangible/crafting/station/public_structure_station.iff	0	487.2998	6	92.6626	-0.7071069	0	0.707107	0		$|
5785379	0	object/tangible/crafting/station/public_weapon_station.iff	0	481.6001	6	80.56543	0.7071072	0	-0.7071063	0		$|
5785380	0	object/tangible/crafting/station/public_weapon_station.iff	0	481.6001	6	74.65137	-0.7071069	0	0.707107	0		$|
5785381	0	object/tangible/crafting/station/public_weapon_station.iff	0	481.6001	6	69.08789	-0.7071069	0	0.707107	0		$|
6015355	0	object/static/structure/naboo/streetlamp_naboo_theed_style_1.iff	0	923.6484	6	245.6421	0.9769763	0	0.2133476	0		$|
6015356	0	object/static/structure/naboo/streetlamp_naboo_theed_style_1.iff	0	874.9272	6.252983	155.0698	0.9736664	0	0.2279777	0		$|
6015402	0	object/static/structure/general/streetlamp_small_style_01.iff	0	145.8613	24.91487	221.9985	1	0	0	0		$|
6015407	0	object/static/structure/general/streetlamp_medium_blue_style_02.iff	0	314.645	6.347851	137.2549	0.7071092	0	-0.7071043	0		$|
6015422	0	object/static/structure/general/streetlamp_large_green_style_02.iff	0	502.2319	6	66.87842	0.7071075	0	-0.707106	0		$|
6015438	0	object/static/structure/general/streetlamp_small_blue_style_01.iff	0	752.2144	14.88142	319.6177	1	0	0	0		$|
6015439	0	object/static/structure/general/streetlamp_small_blue_style_01.iff	0	752.2354	14.88658	300.2256	1	0	0	0		$|
6015444	0	object/static/structure/general/streetlamp_small_blue_style_01.iff	0	891.3555	5.873508	512.564	0.9950042	0	0.09983344	0		$|
6015448	0	object/static/structure/general/streetlamp_small_blue_style_01.iff	0	598.7896	13.77841	184.6533	-0.000796363	0	0	0		$|
6015450	0	object/static/structure/naboo/streetlamp_naboo_theed_style_1.iff	0	515.3462	6.976137	592.5234	1	0	0	0		$|
6015451	0	object/static/structure/naboo/streetlamp_naboo_theed_style_1.iff	0	540.7339	6.955327	636.9121	0.9238796	0	-0.3826834	0		$|
6015452	0	object/static/structure/naboo/streetlamp_naboo_theed_style_1.iff	0	548.9736	6.98109	673.0728	1	0	0	0		$|
6015453	0	object/static/structure/naboo/streetlamp_naboo_theed_style_1.iff	0	572.4209	6.980307	707.5693	0.707107	0	-0.7071065	0		$|
6015454	0	object/static/structure/naboo/streetlamp_naboo_theed_style_1.iff	0	723.7563	6.967594	707.6777	1	0	0	0		$|
6015455	0	object/static/structure/naboo/streetlamp_naboo_theed_style_1.iff	0	747.2646	6.980309	672.4136	0.9971888	0	-0.07492968	0		$|
6015456	0	object/static/structure/naboo/streetlamp_naboo_theed_style_1.iff	0	773.8818	6.948684	618.1523	0.9950042	0	-0.0998334	0		$|
6015457	0	object/static/structure/naboo/streetlamp_naboo_theed_style_1.iff	0	780.7129	6.971072	592.5933	1	0	0	0		$|
6015458	0	object/static/structure/general/streetlamp_small_blue_style_01.iff	0	895.0449	5.873508	511.7896	0.990428	0	0.1346949	0.008172735		$|
6015471	0	object/static/structure/general/streetlamp_small_style_01.iff	0	771.6797	17.18677	213.5967	1	0	0	0		$|
6015472	0	object/static/structure/naboo/streetlamp_naboo_theed_style_1.iff	0	721.9902	6	324.541	1	0	0	0		$|
6015474	0	object/static/structure/general/streetlamp_medium_style_02.iff	0	790.1553	8.423446	305.436	0.7071066	0	0.7071068	0		$|
6015476	0	object/static/structure/general/streetlamp_small_style_01.iff	0	446.6816	6.881054	167.5283	1	0	0	0		$|
6015477	0	object/static/structure/general/streetlamp_small_style_01.iff	0	424.3608	6.924882	167.499	1	0	0	0		$|
6336368	0	object/tangible/terminal/terminal_mission_scout.iff	0	1275.723	6.411097	90.18994	-0.345432	0	0.9384438	0		$|
6336370	0	object/tangible/terminal/terminal_mission_artisan.iff	0	1274.436	6.379475	91.42969	-0.3454319	0	0.9384438	0		$|
6336372	0	object/tangible/terminal/terminal_mission_entertainer.iff	0	1272.905	6.417222	92.42041	-0.3360305	0	0.9418511	0		$|
6336374	0	object/tangible/terminal/terminal_mission_scout.iff	0	1308.437	6.392373	62.15576	-0.3454321	0	0.938444	0		$|
6336376	0	object/tangible/terminal/terminal_mission_artisan.iff	0	1309.959	6.392373	61.16602	-0.3454321	0	0.938444	0		$|
6336378	0	object/tangible/terminal/terminal_mission_entertainer.iff	0	1310.991	6.392373	59.73877	-0.3360303	0	0.941851	0		$|
6336380	0	object/tangible/terminal/terminal_mission_scout.iff	0	623	6	101	1	0	0	0		$|
6336382	0	object/tangible/terminal/terminal_mission_artisan.iff	0	620	6	101	1	0	0	0		$|
6336384	0	object/tangible/terminal/terminal_mission_entertainer.iff	0	618	6	101	1	0	0	0		$|
6336386	0	object/tangible/terminal/terminal_mission_scout.iff	0	674	6	101	1	0	0	0		$|
6336388	0	object/tangible/terminal/terminal_mission_artisan.iff	0	677	6	101	1	0	0	0		$|
6336390	0	object/tangible/terminal/terminal_mission_entertainer.iff	0	680	6	101	1	0	0	0		$|
6336392	0	object/tangible/terminal/terminal_mission_scout.iff	0	420.0317	6	155.7388	1	0	0	0		$|
6336394	0	object/tangible/terminal/terminal_mission_artisan.iff	0	417.0317	6	155.7388	1	0	0	0		$|
6336396	0	object/tangible/terminal/terminal_mission_entertainer.iff	0	415.0317	6	155.7388	1	0	0	0		$|
6336398	0	object/tangible/terminal/terminal_mission_scout.iff	0	450.2173	6	155.6904	1	0	0	0		$|
6336400	0	object/tangible/terminal/terminal_mission_artisan.iff	0	453.2173	6	155.6904	1	0	0	0		$|
6336402	0	object/tangible/terminal/terminal_mission_entertainer.iff	0	456.2173	6	155.6904	1	0	0	0		$|
6336404	0	object/tangible/terminal/terminal_mission_artisan.iff	0	786.9272	6	58.93457	1	0	0	0		$|
6336406	0	object/tangible/terminal/terminal_mission_artisan.iff	0	761.9214	6	58.94678	1	0	0	0		$|
6336408	0	object/tangible/terminal/terminal_mission_scout.iff	0	790.645	6	300.8594	0.7071069	0	0.7071065	0		$|
6336410	0	object/tangible/terminal/terminal_mission_scout.iff	0	790.4917	6	319.3135	0.707107	0	0.7071065	0		$|
6336412	0	object/tangible/terminal/terminal_mission_scout.iff	0	699.2715	6	39.41455	1	0	0	0		$|
6336414	0	object/tangible/terminal/terminal_mission_scout.iff	0	675.1655	6	39.43262	1	0	0	0		$|
6336416	0	object/tangible/terminal/terminal_mission_artisan.iff	0	361.0806	6	305.7017	0.4283799	0	0.9035987	0		$|
6336418	0	object/tangible/terminal/terminal_mission_entertainer.iff	0	359.6729	6	303.8418	0.4328925	0	0.9014456	0		$|
6336420	0	object/tangible/terminal/terminal_mission_artisan.iff	0	371.5469	6	318.0122	0.4283801	0	0.9035991	0		$|
6336422	0	object/tangible/terminal/terminal_mission_entertainer.iff	0	373.3555	6	319.481	0.4328919	0	0.901446	0		$|
6336439	0	object/static/structure/naboo/poi_nboo_tent_small.iff	0	605.8159	6	269.7622	1	0	0	0		$|
6336442	0	object/tangible/furniture/elegant/chest_s01.iff	0	604.3545	6	271.0693	-3.20E-08	0	1	0		$|
6336443	0	object/tangible/furniture/elegant/chest_s01.iff	0	604.188	6	268.1558	0	0	1	0		$|
6336444	0	object/tangible/furniture/elegant/chair_s01.iff	0	605.7988	6	271.9849	0.2674988	0	0.9635582	0		$|
6645417	0	object/soundobject/soundobject_city_crowd_small.iff	0	629.73	6	183.5991	1	0	0	0		$|
6695352	0	object/static/structure/naboo/bridge_stairs_s03.iff	0	1358.042	5.900497	14.24707	0.9384444	0	0.3454304	0		$|
6695353	0	object/static/structure/naboo/enclosed_walkway_s02.iff	0	1367.979	5.883898	5.815918	-0.3454324	0	0.9384438	0		$|
6695357	0	object/static/structure/naboo/elevated_walkway_cap_s01.iff	0	1374.482	5.91662	0.2553711	0.9384435	0	0.3454326	0		$|
6695358	0	object/static/structure/naboo/elevated_walkway_cap_s01.iff	0	1361.484	5.900497	11.35156	0.9384435	0	0.3454326	0		$|
6695393	0	object/soundobject/soundobject_city_crowd_small.iff	0	1120.292	6	0.6762695	1	0	0	0		$|
6695397	0	object/soundobject/soundobject_city_crowd_small.iff	0	1022.425	6	73.50977	1	0	0	0		$|
6695406	0	object/soundobject/soundobject_city_crowd_small.iff	0	791.9834	6	103.6226	1	0	0	0		$|
7085352	0	object/static/naboo/waterfall_200m.iff	0	360.8408	7.650963	406.0137	0.9068365	0	-0.4214226	0.006686526		$|
7085353	0	object/static/naboo/waterfall_200m.iff	0	286.9736	8.016282	326.0146	0.9393728	0	-0.3428977	0		$|
7085354	0	object/static/naboo/waterfall_200m.iff	0	56.854	7.977485	241.3442	0.9895059	0	-0.1444924	-3.15E-10		$|
7085356	0	object/static/naboo/waterfall_200m.iff	0	378.2515	0.710781	391.644	1	0	0	0		$|
7085357	0	object/static/naboo/waterfall_200m.iff	0	853.085	7.534216	553.2988	0.9992001	0	0.03998932	0		$|
7085358	0	object/static/naboo/waterfall_200m.iff	0	934.8091	8.442199	546.1611	0.9963897	0	0.08489763	0		$|
7085359	0	object/static/naboo/waterfall_200m.iff	0	1015.073	7.595394	521.5771	0.9959508	0	0.08989416	-0.001041439		$|
7085360	0	object/static/naboo/waterfall_200m.iff	0	1489.173	8.09724	141.4551	0.9377177	0	0.3473826	-0.00186196		$|
7085361	0	object/static/naboo/waterfall_200m.iff	0	1504.567	8.035245	132.687	0.9676633	0	0.2522454	0		$|
7265371	0	object/soundobject/soundobject_city_crowd_medium.iff	0	753.4785	6	67.87158	1	0	0	0		$|
8075583	0	object/tangible/terminal/terminal_mission_imperial.iff	0	672.9697	6	316.2588	0.7071069	0	0.707107	0		$|
8075590	0	object/tangible/furniture/imperial/table_s1.iff	0	1207.849	6	132.7822	1	0	0	0		$|
8075591	0	object/tangible/furniture/imperial/table_s1.iff	0	1216.017	6	132.9956	1	0	0	0		$|
8075592	0	object/tangible/terminal/terminal_mission_imperial.iff	0	1223.649	6	131.9941	-0.3826835	0	0.9238795	0		$|
8075594	0	object/tangible/terminal/terminal_mission_imperial.iff	0	1225.969	6	130.1123	-0.382683	0	0.92388	0		$|
8075596	0	object/tangible/terminal/terminal_mission_imperial.iff	0	1227.768	6	128.499	-0.382683	0	0.92388	0		$|
8075598	0	object/static/structure/naboo/poi_nboo_tent_med.iff	0	1224.457	6.106462	129.3589	0.9238795	0	-0.3826835	0		$|
8075599	0	object/static/item/item_carbine_imperial_e11.iff	0	1207.941	6.790572	133.5757	-0.40554	0	0.5792556	0.5792561		$|
8075600	0	object/static/item/item_carbine_imperial_e11.iff	0	1216.161	6.783466	133.7051	0.4473675	0	0.5475971	-0.547597		$|
8075601	0	object/static/item/item_diagnostic_screen.iff	0	1215.706	6.758948	133.623	0.9982005	0	0.05996406	0		$|
8075602	0	object/static/item/item_pistol_imperial_scout.iff	0	1207.491	6.78	133.4829	0.2594158	0	0.6615888	-0.655109		$|
8075603	0	object/static/item/item_pistol_imperial_scout.iff	0	1208.136	6.79	133.2104	0.6850677	0	-0.3466951	-0.2893006		$|
8185431	0	object/static/structure/general/skeleton_human_body.iff	0	68.39697	1837.755	1846.297	1	0	0	0		$|
8185432	0	object/static/structure/general/skeleton_human_headandbody.iff	0	67.80518	1837.706	1847.863	1	0	0	0		$|
8185435	0	object/static/structure/tatooine/skeleton_krayt_foot.iff	0	66.89404	1837.771	1847.183	0.90687	0	0	0		$|
8185436	0	object/static/structure/naboo/gungan_pillar_ruined_s01.iff	0	66.95508	1837.485	1846.158	0.9838437	0	0	0		$|
8185437	0	object/static/structure/general/skeleton_human_head.iff	0	67.50879	1838.111	1846.025	1	0	0	0		$|
8185438	0	object/static/structure/general/skeleton_human_head.iff	0	67.34863	1838.088	1846.177	0.6748759	0	0.7379313	0		$|
8185439	0	object/static/structure/general/skeleton_ithorian_head.iff	0	67.76953	1837.932	1846.692	1	0	0	0		$|
8305375	0	object/static/structure/naboo/nboo_imprv_short_curved_wall_small_s01.iff	0	1547.913	1851.577	647.1387	1	0	0	0		$|
8305376	0	object/static/structure/naboo/nboo_imprv_short_curved_wall_small_s01.iff	0	1548.806	1851.35	654.6343	0.05077469	0	0.99871	0		$|
8305379	0	object/static/structure/general/bench_generic_style_1.iff	0	1549.672	1851.448	649.2012	0.9410754	0	-0.3381967	0		$|
8305380	0	object/static/structure/general/bench_generic_style_1.iff	0	1547.282	1851.442	652.3794	0.3623581	0	0.932039	0		$|
8305381	0	object/tangible/furniture/all/frn_all_tree_potted_s2.iff	0	1549.2	1850.781	646.5327	0.7775728	0	0.6287929	0		$|
8305382	0	object/tangible/furniture/all/frn_all_tree_potted_s2.iff	0	1545.429	1850.696	654.0181	-0.1797934	0	0.98359	0.005724716		$|
8305383	0	object/static/flora/flora_tree_lok_mkpud.iff	0	1549.111	1850.588	652.4922	1	0	0	0		$|
8305384	0	object/static/flora/flora_tree_lok_mkpud.iff	0	1545.351	1850.586	649.749	1	0	0	0		$|
8305385	0	object/static/flora/flora_tree_lok_mkpud.iff	0	1550.389	1851.714	648.1714	1	0	0	0		$|
8315434	0	object/static/structure/naboo/poi_nboo_tent_hut_s01.iff	0	712.2705	6	76.60645	1	0	0	0		$|
8315437	0	object/static/item/item_container_energy_liquid.iff	0	708.9756	6	79.86475	1	0	0	0		$|
8315438	0	object/static/item/item_container_energy_liquid.iff	0	709.1021	6	79.54639	1	0	0	0		$|
8315439	0	object/static/item/item_container_energy_solid.iff	0	708.4795	6	79.38525	1	0	0	0		$|
8315440	0	object/static/structure/tatooine/debris_tatt_crate_metal_1.iff	0	707.772	6	77.22705	0.9582438	0	-0.2859522	0		$|
8315441	0	object/static/structure/tatooine/debris_tatt_drum_dented_1.iff	0	707.8115	6	78.16699	1	0	0	0		$|
8315442	0	object/tangible/furniture/tatooine/frn_tato_table_small_style_01.iff	0	712.4355	6	75.79883	1	0	0	0		$|
8315444	0	object/tangible/furniture/all/frn_all_rug_rectangle_large_style_01.iff	0	712.417	5.961006	75.72412	1	0	0	0		$|
8315445	0	object/static/structure/naboo/streetlamp_naboo_theed_style_1.iff	0	715.6558	6	80.14795	0.9110385	0	-0.4123212	0		$|
8315446	0	object/static/item/item_con_drink_flask.iff	0	712.1841	6.600835	76.04932	1	0	0	0		$|
8315447	0	object/static/item/item_con_plate_s1_full.iff	0	712.5483	6.632457	75.95117	1	0	0	0		$|
8315448	0	object/static/item/item_data_disk.iff	0	714.771	6.948687	77.61719	1	0	0	0		$|
8315449	0	object/static/item/item_data_disk.iff	0	714.6895	6.948687	77.71436	1	0	0	0		$|
8315450	0	object/static/item/item_datapad_s1.iff	0	714.9082	6.917064	77.75049	1	0	0	0		$|
8315451	0	object/static/item/item_document.iff	0	712.2324	6.632458	75.5542	0.5816831	0	0.8134155	0		$|
8725352	0	object/static/structure/general/streetlamp_small_style_01.iff	0	350.834	6.545597	66.00537	1	0	0	0		$|
8725355	0	object/building/naboo/thm_nboo_block_bldg_64x32_style_01.iff	0	378.2593	6	214.1279	-0.06186354	0	0.9980846	0		$|
8865395	0	object/static/structure/naboo/garden_gazebo_lg_s01.iff	0	987.7314	6	33.56836	1	0	0	0		$|
8865400	0	object/static/structure/naboo/nboo_imprv_tall_curved_wall_large_s01.iff	0	986.6812	6	26.17578	0.99955	0	-0.0299955	0		$|
8865401	0	object/static/structure/naboo/nboo_imprv_tall_curved_wall_large_s01.iff	0	987.8018	6	40.33252	0.03919347	0	0.9992316	0		$|
8865414	0	object/static/structure/naboo/wall_a1_naboo_theed_style_1.iff	0	988.4082	4.158748	46.80273	0.9089658	0	-0.4168708	0		$|
8865415	0	object/static/structure/naboo/wall_a1_naboo_theed_style_1.iff	0	1000.565	4.109321	36.44238	0.9089657	0	-0.4168709	0		$|
8865416	0	object/tangible/furniture/ep3_rewards/ep3_kash_reward_sordaan_hunting_trophy.iff	0	988.5269	9.692042	36.52588	0.99955	0	0.0299954	0		$|
8865417	0	object/tangible/furniture/ep3_rewards/ep3_kash_reward_sordaan_hunting_trophy.iff	0	990.6821	9.731394	34.37891	0.7316886	0	0.6816391	0		$|
8865418	0	object/tangible/furniture/ep3_rewards/ep3_kash_reward_trophy_bantha_kash.iff	0	981.439	9.551239	37.71631	0.4161469	0	0.9092975	0		$|
8865419	0	object/tangible/furniture/ep3_rewards/ep3_kash_reward_trophy_bolotaur.iff	0	996.9019	9.75278	32.85254	0.9075401	0	-0.4199655	0		$|
8865420	0	object/tangible/furniture/ep3_rewards/ep3_kash_reward_trophy_katarn.iff	0	991.6406	7.060775	28.75244	0.934691	0	-0.3554614	0		$|
8865421	0	object/tangible/furniture/ep3_rewards/ep3_kash_reward_trophy_kkorrwrot.iff	0	992.5801	9.723718	28.13281	0.9094466	0	-0.4153396	0.0083079		$|
8865422	0	object/tangible/furniture/ep3_rewards/ep3_kash_reward_trophy_minstyngar.iff	0	982.5605	7.192034	37.42432	0.4161468	0	0.9092973	0		$|
8865423	0	object/tangible/furniture/ep3_rewards/ep3_kash_reward_trophy_mouf.iff	0	985.7319	9.582392	42.83154	0.4206882	0	0.9072054	0		$|
8865424	0	object/tangible/furniture/ep3_rewards/ep3_kash_reward_trophy_uller.iff	0	989.7983	9.553496	24.73242	0.9096286	0	-0.4154226	0		$|
8865425	0	object/tangible/furniture/ep3_rewards/ep3_kash_reward_trophy_walluga.iff	0	977.6699	9.761257	33.55615	0.4161469	0	0.9092975	0		$|
8905466	0	object/static/structure/naboo/nboo_imprv_flagpole_s01.iff	0	688.9683	18.72266	185.0815	1	0	0	0		$|
8905467	0	object/static/structure/naboo/nboo_imprv_flagpole_s01.iff	0	688.6924	18.72266	156.2412	1	0	0	0		$|
8905468	0	object/static/structure/naboo/nboo_imprv_flagpole_s01.iff	0	717.3979	14.64459	218.4282	1	0	0	0		$|
8905469	0	object/static/structure/naboo/nboo_imprv_bannerpole_s01.iff	0	632.0029	9.288154	327.2534	1	0	0	0		$|
8905470	0	object/static/structure/naboo/nboo_imprv_bannerpole_s01.iff	0	663.9126	9.288154	327.2808	-3.20E-08	0	1	0		$|
8905471	0	object/static/structure/naboo/nboo_imprv_flagpole_s01.iff	0	656.9209	107.8743	796.832	1	0	0	0		$|
8905472	0	object/static/structure/naboo/nboo_imprv_flagpole_s01.iff	0	792.7158	18.38705	295.6851	1	0	0	0		$|
8905473	0	object/static/structure/naboo/nboo_imprv_flagpole_s01.iff	0	792.6143	18.38705	324.4126	1	0	0	0		$|
8905475	0	object/static/structure/naboo/nboo_imprv_flagpole_s01.iff	0	435.2925	31.98197	135.5054	1	0	0	0		$|
8905476	0	object/static/structure/naboo/nboo_imprv_flagpole_s01.iff	0	750.0557	18.73885	81.43164	1	0	0	0		$|
8905477	0	object/static/structure/naboo/nboo_imprv_flagpole_s01.iff	0	778.939	18.73885	81.66846	1	0	0	0		$|
8905478	0	object/static/structure/naboo/nboo_imprv_flagpole_s01.iff	0	1150.813	14.67419	14.25439	1	0	0	0		$|
8905479	0	object/static/structure/naboo/nboo_imprv_flagpole_s01.iff	0	1081.333	31.70351	6.584473	1	0	0	0		$|
8905484	0	object/static/structure/naboo/nboo_imprv_flagpole_s01.iff	0	1255.216	50.38568	110.0742	1	0	0	0		$|
8905485	0	object/static/structure/naboo/nboo_imprv_flagpole_s01.iff	0	1334.099	50.29647	42.57959	1	0	0	0		$|
8905491	0	object/static/structure/naboo/fountain_naboo_style_1.iff	0	472.9121	6	126.0552	1	0	0	0		$|
9525415	0	object/static/structure/general/bench_generic_style_1.iff	0	656.6729	27.0147	802.271	1	0	0	0		$|
9525416	0	object/static/structure/general/streetlamp_medium_style_02.iff	0	656.4985	39.71107	795.9277	-0.000796363	0	0	0		$|
9525531	0	object/tangible/crafting/station/public_food_station.iff	0	1205.725	6	54.10938	0.4115957	0	0.9113666	0		$|
9525532	0	object/static/structure/general/droid_21bmedical_powerdown.iff	0	1206.574	6	51.07422	0.9895059	0	0.1444924	0		$|
9525535	0	object/tangible/crafting/station/public_food_station.iff	0	1188.651	6	29.69873	0.4168721	0	0.9089651	0		$|
9525536	0	object/tangible/crafting/station/public_weapon_station.iff	0	1183.92	6	23.45703	0.4161471	0	0.9092973	0		$|
9525537	0	object/tangible/crafting/station/public_clothing_station.iff	0	1186.586	6	26.30957	-0.3458883	0	0.9382757	0		$|
9525539	0	object/tangible/furniture/modern/chair_modern_style_01.iff	0	682.8213	52.82494	717.1528	0.7114756	0	-0.7027106	0		$|
9525540	0	object/tangible/furniture/modern/chair_modern_style_01.iff	0	679.8101	52.82494	717.292	0.7027123	0	0.7114738	0		$|
9525541	0	object/tangible/furniture/modern/chair_modern_style_01.iff	0	681.3213	52.82494	718.7866	-0.001592019	0	0.9999987	0		$|
9525542	0	object/tangible/furniture/modern/table_modern_style_01.iff	0	681.2871	52.82494	717.2505	0.9390993	0	0.3436459	0		$|
9525543	0	object/static/item/item_con_bowl_serving_full.iff	0	681.5015	53.7104	717.6528	0.9390993	0	0.3436459	0		$|
9525544	0	object/static/item/item_con_bowl_full.iff	0	681.5981	53.71041	717.3408	0.9390993	0	0.3436459	0		$|
9525545	0	object/tangible/furniture/modern/table_modern_style_01.iff	0	688.5566	52.80021	710.4697	0.9191024	0	-0.3940189	0		$|
9525546	0	object/tangible/furniture/modern/chair_modern_style_01.iff	0	688.4292	52.79901	709	0.9993594	0	0.03578892	0		$|
9525547	0	object/tangible/furniture/modern/chair_modern_style_01.iff	0	690.022	52.86372	710.2583	0.7754257	0	-0.6314388	0		$|
9525548	0	object/tangible/furniture/modern/chair_modern_style_01.iff	0	688.748	52.79901	711.9966	-0.03578906	0	0.9993593	0		$|
9525549	0	object/static/item/item_glass_bluemilk.iff	0	688.8232	52.9255	710.2202	0	0	1	0		$|
9525550	0	object/static/item/item_con_plate_s1_full.iff	0	688.9971	53.68444	710.4854	0	0	1	0		$|
9525551	0	object/static/item/item_bottle_pear.iff	0	688.5181	53.68446	710.3989	0	0	1	0		$|
9525571	0	object/static/structure/general/droid_droideka_powerdown.iff	0	1199.169	6	40.00342	0.6097905	0	0.7925626	0		$|
9525579	0	object/tangible/furniture/modern/chair_modern_style_01.iff	0	674.4512	52.89868	708.8687	0.9999576	0	-0.009203264	0		$|
9525580	0	object/tangible/furniture/modern/chair_modern_style_01.iff	0	674.4233	52.89868	711.896	0.009203129	0	0.9999576	0		$|
9525581	0	object/tangible/furniture/modern/chair_modern_style_01.iff	0	672.9058	52.89868	710.3418	0.7167953	0	0.6972837	0		$|
9525582	0	object/tangible/furniture/modern/table_modern_style_01.iff	0	674.4458	52.89868	710.3467	0.9004472	0	-0.4349653	0		$|
9525583	0	object/static/item/item_bottle_fat.iff	0	674.186	53.80803	710.5386	0.4349654	0	0.900447	0		$|
9525584	0	object/static/item/item_glass_empty.iff	0	673.9858	53.80804	710.1831	0.4349654	0	0.900447	0		$|
4295615	0	object/tangible/space/content_infrastructure/ground_npc_spawner.iff	0	628	6	307	1	0	0	0	space.content_tools.npc_spawner	$|
91573	0	object/tangible/space/content_infrastructure/ground_npc_spawner.iff	0	1288	6	64	1	0	0	0	space.content_tools.npc_spawner	$|
91572	0	object/tangible/space/content_infrastructure/ground_npc_spawner.iff	0	1289	6	64	1	0	0	0	space.content_tools.npc_spawner	$|
